10256,YWD,78124,2018-12-10T00:00:00.000Z,2020-05-17T00:00:00.000Z
11331,YWL,78241,20130520,2100-12-31T00:00:00.000Z
11331,DA1,36577,20120123-20120123-20120123-20120123-20120123-20120123-20120123,2100-12-31T00:00:00.000Z-2100-12-31T00:00:00.000Z-2100-12-31T00:00:00.000Z-2100-12-31T00:00:00.000Z-2100-12-31T00:00:00.000Z-2100-12-31T00:00:00.000Z-2100-12-31T00:00:00.000Z
11331,XWK,77617,20120702,2100-12-31T00:00:00.000Z
11331,DA1,35308,20200629-20200629-20200629-20200629-20200629-20200629-20200629,2100-12-31T00:00:00.000Z-2100-12-31T00:00:00.000Z-2100-12-31T00:00:00.000Z-2100-12-31T00:00:00.000Z-2100-12-31T00:00:00.000Z-2100-12-31T00:00:00.000Z-2100-12-31T00:00:00.000Z
11331,DA1,74827,20201109,2100-12-31T00:00:00.000Z
11331,DA1,73518,20101213-20101213,2100-12-31T00:00:00.000Z-2100-12-31T00:00:00.000Z
11331,DA1,73445,20200127,2100-12-31T00:00:00.000Z
11331,DA1,74193,20160725,2100-12-31T00:00:00.000Z
11331,XWG,74037,20200629-20171023,2100-12-31T00:00:00.000Z-2100-12-31T00:00:00.000Z
11331,DA1,35322,20210621-20170109,2100-12-31T00:00:00.000Z-20210620
11331,CC5,73798,20161219-20161219,2100-12-31T00:00:00.000Z-2100-12-31T00:00:00.000Z
11331,DA1,78488,20130902,2100-12-31T00:00:00.000Z
11331,DA1,74108,20180108,2100-12-31T00:00:00.000Z
11331,DA1,74746,20080331-20080331-20080331-20080331-20080331-20080331-20080331,2100-12-31T00:00:00.000Z-2100-12-31T00:00:00.000Z-2100-12-31T00:00:00.000Z-2100-12-31T00:00:00.000Z-2100-12-31T00:00:00.000Z-2100-12-31T00:00:00.000Z-2100-12-31T00:00:00.000Z
11331,DAY,35331,20200629-20200629-20200629-20200629-20200629-20200629-20200629,2100-12-31T00:00:00.000Z-2100-12-31T00:00:00.000Z-2100-12-31T00:00:00.000Z-2100-12-31T00:00:00.000Z-2100-12-31T00:00:00.000Z-2100-12-31T00:00:00.000Z-2100-12-31T00:00:00.000Z
11331,XWQ,79206,20140519,2100-12-31T00:00:00.000Z
11331,XWH,77520,20121203,2100-12-31T00:00:00.000Z
11331,DAY,35308,20200629-20200629-20200629-20200629-20200629-20200629-20200629,2100-12-31T00:00:00.000Z-2100-12-31T00:00:00.000Z-2100-12-31T00:00:00.000Z-2100-12-31T00:00:00.000Z-2100-12-31T00:00:00.000Z-2100-12-31T00:00:00.000Z-2100-12-31T00:00:00.000Z
11331,DA1,35332,20200720-20200720-20200720-20200720-20200720-20200720,2100-12-31T00:00:00.000Z-2100-12-31T00:00:00.000Z-2100-12-31T00:00:00.000Z-2100-12-31T00:00:00.000Z-2100-12-31T00:00:00.000Z-2100-12-31T00:00:00.000Z
11331,YWL,78167,20130520,2100-12-31T00:00:00.000Z
11331,DA1,74531,20181015,20210620
11331,DA1,75060,20101129-20101129-20101129-20101129-20101129-20101129-20101129,2100-12-31T00:00:00.000Z-2100-12-31T00:00:00.000Z-2100-12-31T00:00:00.000Z-2100-12-31T00:00:00.000Z-2100-12-31T00:00:00.000Z-2100-12-31T00:00:00.000Z-2100-12-31T00:00:00.000Z
11331,DA1,35327,20200817,2100-12-31T00:00:00.000Z
11331,DA1,73438,20201109,2100-12-31T00:00:00.000Z
11331,DA1,35325,20210621-20210621-20210621-20210621-20210621-20200712-20200712-20200712-20200712-20200712-20200712,2100-12-31T00:00:00.000Z-2100-12-31T00:00:00.000Z-2100-12-31T00:00:00.000Z-2100-12-31T00:00:00.000Z-2100-12-31T00:00:00.000Z-20210620-20210620-20210620-20210620-20210620-20210620
11331,XWM,77679,20210524,2100-12-31T00:00:00.000Z
11331,YWM,74995,20180611,2100-12-31T00:00:00.000Z
11331,DA1,35338,20210621-20210621-20210621-20210621-20210621-20200712-20200712-20200712-20200712-20200712-20200712,2100-12-31T00:00:00.000Z-2100-12-31T00:00:00.000Z-2100-12-31T00:00:00.000Z-2100-12-31T00:00:00.000Z-2100-12-31T00:00:00.000Z-20210620-20210620-20210620-20210620-20210620-20210620
11331,DA1,73963,20111128,2100-12-31T00:00:00.000Z
11331,DA2,35341,20200712-20200712-20200712-20200712-20200712,2100-12-31T00:00:00.000Z-2100-12-31T00:00:00.000Z-2100-12-31T00:00:00.000Z-2100-12-31T00:00:00.000Z-2100-12-31T00:00:00.000Z
11331,DAY,35391,20161219-20161219-20161219-20161219-20161219-20161219-20161219,2100-12-31T00:00:00.000Z-2100-12-31T00:00:00.000Z-2100-12-31T00:00:00.000Z-2100-12-31T00:00:00.000Z-2100-12-31T00:00:00.000Z-2100-12-31T00:00:00.000Z-2100-12-31T00:00:00.000Z
11331,DA2,35332,20200720-20200720-20200720-20200720-20200720-20200720,2100-12-31T00:00:00.000Z-2100-12-31T00:00:00.000Z-2100-12-31T00:00:00.000Z-2100-12-31T00:00:00.000Z-2100-12-31T00:00:00.000Z-2100-12-31T00:00:00.000Z
11331,DA2,35345,20161219-20161219-20161219-20161219-20161219-20161219-20161219,2100-12-31T00:00:00.000Z-2100-12-31T00:00:00.000Z-2100-12-31T00:00:00.000Z-2100-12-31T00:00:00.000Z-2100-12-31T00:00:00.000Z-2100-12-31T00:00:00.000Z-2100-12-31T00:00:00.000Z
11331,DA1,35313,20200712-20200712-20200712-20200712,2100-12-31T00:00:00.000Z-2100-12-31T00:00:00.000Z-2100-12-31T00:00:00.000Z-2100-12-31T00:00:00.000Z
11331,DA1,77598,20131104,20210620
11331,DA1,35316,20170717,2100-12-31T00:00:00.000Z
11331,DA1,35317,20200429,2100-12-31T00:00:00.000Z
11331,DA1,39978,20120409-20120409-20120409-20120409-20120409-20120409-20120409,2100-12-31T00:00:00.000Z-2100-12-31T00:00:00.000Z-2100-12-31T00:00:00.000Z-2100-12-31T00:00:00.000Z-2100-12-31T00:00:00.000Z-2100-12-31T00:00:00.000Z-2100-12-31T00:00:00.000Z
11331,DA1,74514,20161010,2100-12-31T00:00:00.000Z
11331,DA1,74606,20190729,2100-12-31T00:00:00.000Z
11331,DA1,74505,20160912,2100-12-31T00:00:00.000Z
11331,DA1,74365,20160502-20160502-20160502-20160502-20160502-20160502-20160502,2100-12-31T00:00:00.000Z-2100-12-31T00:00:00.000Z-2100-12-31T00:00:00.000Z-2100-12-31T00:00:00.000Z-2100-12-31T00:00:00.000Z-2100-12-31T00:00:00.000Z-2100-12-31T00:00:00.000Z
11331,DA1,35344,20200817-20200817,2100-12-31T00:00:00.000Z-2100-12-31T00:00:00.000Z
11331,DA1,35321,20161219-20161219-20161219-20161219-20161219-20161219-20161219,2100-12-31T00:00:00.000Z-2100-12-31T00:00:00.000Z-2100-12-31T00:00:00.000Z-2100-12-31T00:00:00.000Z-2100-12-31T00:00:00.000Z-2100-12-31T00:00:00.000Z-2100-12-31T00:00:00.000Z
11331,DA1,35319,20210621-20210621-20210621-20210621-20210621-20200712-20200712-20200712-20200712-20200712-20200712,2100-12-31T00:00:00.000Z-2100-12-31T00:00:00.000Z-2100-12-31T00:00:00.000Z-2100-12-31T00:00:00.000Z-2100-12-31T00:00:00.000Z-20210620-20210620-20210620-20210620-20210620-20210620
11331,DA1,35352,20200712-20200712-20200712-20200712-20200712,2100-12-31T00:00:00.000Z-2100-12-31T00:00:00.000Z-2100-12-31T00:00:00.000Z-2100-12-31T00:00:00.000Z-2100-12-31T00:00:00.000Z
11331,DA1,35320,20200712-20200712-20200712-20200712,2100-12-31T00:00:00.000Z-2100-12-31T00:00:00.000Z-2100-12-31T00:00:00.000Z-2100-12-31T00:00:00.000Z
11331,DA1,74279,20170814,2100-12-31T00:00:00.000Z
11331,DA2,35308,20200629-20200629-20200629-20200629-20200629-20200629-20200629,2100-12-31T00:00:00.000Z-2100-12-31T00:00:00.000Z-2100-12-31T00:00:00.000Z-2100-12-31T00:00:00.000Z-2100-12-31T00:00:00.000Z-2100-12-31T00:00:00.000Z-2100-12-31T00:00:00.000Z
11331,CC6,73798,20161219-20161219,2100-12-31T00:00:00.000Z-2100-12-31T00:00:00.000Z
11331,DA1,35324,20210621-20210621-20210621-20210621-20210621-20200720-20200720-20200720-20200720-20200720-20200720,2100-12-31T00:00:00.000Z-2100-12-31T00:00:00.000Z-2100-12-31T00:00:00.000Z-2100-12-31T00:00:00.000Z-2100-12-31T00:00:00.000Z-20210620-20210620-20210620-20210620-20210620-20210620
11331,DA1,73846,20200427-20200427-20200427-20200427-20200427-20200427-20200427,2100-12-31T00:00:00.000Z-2100-12-31T00:00:00.000Z-2100-12-31T00:00:00.000Z-2100-12-31T00:00:00.000Z-2100-12-31T00:00:00.000Z-2100-12-31T00:00:00.000Z-2100-12-31T00:00:00.000Z
11331,DA1,79099,20171120,2100-12-31T00:00:00.000Z
11331,DA1,35328,20200727-20200727-20200727-20200727-20200727-20200727-20200727,2100-12-31T00:00:00.000Z-2100-12-31T00:00:00.000Z-2100-12-31T00:00:00.000Z-2100-12-31T00:00:00.000Z-2100-12-31T00:00:00.000Z-2100-12-31T00:00:00.000Z-2100-12-31T00:00:00.000Z
11331,XWJ,73769,20170731,2100-12-31T00:00:00.000Z
11331,DA1,35312,20200712-20200712-20200712-20200712,2100-12-31T00:00:00.000Z-2100-12-31T00:00:00.000Z-2100-12-31T00:00:00.000Z-2100-12-31T00:00:00.000Z
11331,DA1,35343,20210621-20210621-20210621-20210621-20210621-20200712-20200712-20200712-20200712-20200712-20200712,2100-12-31T00:00:00.000Z-2100-12-31T00:00:00.000Z-2100-12-31T00:00:00.000Z-2100-12-31T00:00:00.000Z-2100-12-31T00:00:00.000Z-20210620-20210620-20210620-20210620-20210620-20210620
11331,DA1,78923,20140714,2100-12-31T00:00:00.000Z
11331,DA2,35331,20200629-20200629-20200629-20200629-20200629-20200629-20200629,2100-12-31T00:00:00.000Z-2100-12-31T00:00:00.000Z-2100-12-31T00:00:00.000Z-2100-12-31T00:00:00.000Z-2100-12-31T00:00:00.000Z-2100-12-31T00:00:00.000Z-2100-12-31T00:00:00.000Z
11331,DA1,78483,20140630,2100-12-31T00:00:00.000Z
11331,DA1,35329,20200712-20200712-20200712,2100-12-31T00:00:00.000Z-2100-12-31T00:00:00.000Z-2100-12-31T00:00:00.000Z
11331,DA1,77780,20181029,2100-12-31T00:00:00.000Z
11331,DA1,77779,20181015,2100-12-31T00:00:00.000Z
11331,DA1,78803,20181112,2100-12-31T00:00:00.000Z
11331,DA1,35331,20200629-20200629-20200629-20200629-20200629-20200629-20200629,2100-12-31T00:00:00.000Z-2100-12-31T00:00:00.000Z-2100-12-31T00:00:00.000Z-2100-12-31T00:00:00.000Z-2100-12-31T00:00:00.000Z-2100-12-31T00:00:00.000Z-2100-12-31T00:00:00.000Z
11331,DA1,36950,20011231-20011231-20011231-20011231-20011231-20011231-20011231,2100-12-31T00:00:00.000Z-2100-12-31T00:00:00.000Z-2100-12-31T00:00:00.000Z-2100-12-31T00:00:00.000Z-2100-12-31T00:00:00.000Z-2100-12-31T00:00:00.000Z-2100-12-31T00:00:00.000Z
20035,DA1,39952,2020-06-29T00:00:00.000Z-2020-06-29T00:00:00.000Z-2020-06-29T00:00:00.000Z-2020-06-29T00:00:00.000Z-2020-06-29T00:00:00.000Z-2020-06-29T00:00:00.000Z-2020-06-29T00:00:00.000Z,2020-09-13T00:00:00.000Z-2020-09-13T00:00:00.000Z-2020-09-13T00:00:00.000Z-2020-09-13T00:00:00.000Z-2020-09-13T00:00:00.000Z-2020-09-13T00:00:00.000Z-2020-09-13T00:00:00.000Z
20342,DA1,77598,2013-11-04T00:00:00.000Z,2021-06-20T00:00:00.000Z
20342,DA1,74531,2018-10-15T00:00:00.000Z,2021-06-20T00:00:00.000Z
20342,XWQ,77333,2021-05-31T00:00:00.000Z,2021-06-27T00:00:00.000Z
21803,DA1,77598,2013-11-04T00:00:00.000Z,2021-06-20T00:00:00.000Z
21803,DA1,74531,2018-10-15T00:00:00.000Z,2021-06-20T00:00:00.000Z
21977,DA1,74531,2018-10-15T00:00:00.000Z,2021-06-20T00:00:00.000Z
21977,DA1,77598,2013-11-04T00:00:00.000Z,2021-06-20T00:00:00.000Z
22234,DA1,74531,2018-10-15T00:00:00.000Z,2021-06-20T00:00:00.000Z
22234,DA1,77598,2013-11-04T00:00:00.000Z,2021-06-20T00:00:00.000Z
23746,DA1,74531,2018-10-15T00:00:00.000Z,2021-06-20T00:00:00.000Z
23746,DA1,77598,2013-11-04T00:00:00.000Z,2021-06-20T00:00:00.000Z
23976,DA1,73723,20161212,2100-12-31T00:00:00.000Z
23976,DA1,74514,20161010,2100-12-31T00:00:00.000Z
23976,DA1,35644,20171023-20171023-20171023-20171023-20171023,2100-12-31T00:00:00.000Z-2100-12-31T00:00:00.000Z-2100-12-31T00:00:00.000Z-2100-12-31T00:00:00.000Z-2100-12-31T00:00:00.000Z
23976,DA1,77780,20181029,2100-12-31T00:00:00.000Z
23976,DA2,35602,20200826-20200826-20200826-20200826-20200826-20200826,2100-12-31T00:00:00.000Z-2100-12-31T00:00:00.000Z-2100-12-31T00:00:00.000Z-2100-12-31T00:00:00.000Z-2100-12-31T00:00:00.000Z-2100-12-31T00:00:00.000Z
23976,DA1,78483,20140630,2100-12-31T00:00:00.000Z
23976,XWK,77617,20120702,2100-12-31T00:00:00.000Z
23976,DA2,35693,20200622-20200622-20200622-20200622-20200622-20200622-20200622,2100-12-31T00:00:00.000Z-2100-12-31T00:00:00.000Z-2100-12-31T00:00:00.000Z-2100-12-31T00:00:00.000Z-2100-12-31T00:00:00.000Z-2100-12-31T00:00:00.000Z-2100-12-31T00:00:00.000Z
23976,DA1,35604,20160620-20160620-20160620-20160620,2100-12-31T00:00:00.000Z-2100-12-31T00:00:00.000Z-2100-12-31T00:00:00.000Z-2100-12-31T00:00:00.000Z
23976,DA1,77598,20131104,20210620
23976,DA1,73438,20201109,2100-12-31T00:00:00.000Z
23976,DA1,74827,20201109,2100-12-31T00:00:00.000Z
23976,DA1,35686,20140714-20140714,2100-12-31T00:00:00.000Z-2100-12-31T00:00:00.000Z
23976,DA1,35692,20171023-20171023-20171023,2100-12-31T00:00:00.000Z-2100-12-31T00:00:00.000Z-2100-12-31T00:00:00.000Z
23976,DA1,73445,20200127,2100-12-31T00:00:00.000Z
23976,DA1,35694,20171023-20171023-20171023-20171023-20171023-20171023-20171023,2100-12-31T00:00:00.000Z-2100-12-31T00:00:00.000Z-2100-12-31T00:00:00.000Z-2100-12-31T00:00:00.000Z-2100-12-31T00:00:00.000Z-2100-12-31T00:00:00.000Z-2100-12-31T00:00:00.000Z
23976,DA1,35688,20200810-20200810-20200810-20200810-20200810-20200810,2100-12-31T00:00:00.000Z-2100-12-31T00:00:00.000Z-2100-12-31T00:00:00.000Z-2100-12-31T00:00:00.000Z-2100-12-31T00:00:00.000Z-2100-12-31T00:00:00.000Z
23976,DA1,78801,20200203,2100-12-31T00:00:00.000Z
23976,DA1,35624,20171023-20171023-20171023,2100-12-31T00:00:00.000Z-2100-12-31T00:00:00.000Z-2100-12-31T00:00:00.000Z
23976,DA1,35626,20200907,2100-12-31T00:00:00.000Z
23976,DA1,78803,20181112,2100-12-31T00:00:00.000Z
23976,DA1,35691,20171023-20171023-20171023-20171023-20171023-20171023,2100-12-31T00:00:00.000Z-2100-12-31T00:00:00.000Z-2100-12-31T00:00:00.000Z-2100-12-31T00:00:00.000Z-2100-12-31T00:00:00.000Z-2100-12-31T00:00:00.000Z
23976,DA1,74193,20160725,2100-12-31T00:00:00.000Z
23976,XWQ,74061,20200323,2100-12-31T00:00:00.000Z
23976,DA1,74279,20170814,2100-12-31T00:00:00.000Z
23976,XWH,77520,20121203,2100-12-31T00:00:00.000Z
23976,XWV,35646,20171023,2100-12-31T00:00:00.000Z
23976,DA1,74365,20160502-20160502-20160502-20160502-20160502-20160502-20160502,2100-12-31T00:00:00.000Z-2100-12-31T00:00:00.000Z-2100-12-31T00:00:00.000Z-2100-12-31T00:00:00.000Z-2100-12-31T00:00:00.000Z-2100-12-31T00:00:00.000Z-2100-12-31T00:00:00.000Z
23976,DA1,74606,20190729,2100-12-31T00:00:00.000Z
23976,DA1,78627,20170123,2100-12-31T00:00:00.000Z
23976,XWU,35653,20210531-20210531,2100-12-31T00:00:00.000Z-2100-12-31T00:00:00.000Z
23976,XWG,73708,20150330,2100-12-31T00:00:00.000Z
23976,DAY,35643,20171023-20171023-20171023-20171023-20171023-20171023-20171023,2100-12-31T00:00:00.000Z-2100-12-31T00:00:00.000Z-2100-12-31T00:00:00.000Z-2100-12-31T00:00:00.000Z-2100-12-31T00:00:00.000Z-2100-12-31T00:00:00.000Z-2100-12-31T00:00:00.000Z
23976,DA1,78488,20130902,2100-12-31T00:00:00.000Z
23976,XWU,35656,20210531-20210531,2100-12-31T00:00:00.000Z-2100-12-31T00:00:00.000Z
23976,DA1,35654,20200810-20200810-20200810-20200810-20200810-20200810,2100-12-31T00:00:00.000Z-2100-12-31T00:00:00.000Z-2100-12-31T00:00:00.000Z-2100-12-31T00:00:00.000Z-2100-12-31T00:00:00.000Z-2100-12-31T00:00:00.000Z
23976,DA1,35603,20170220-20170220-20170220,2100-12-31T00:00:00.000Z-2100-12-31T00:00:00.000Z-2100-12-31T00:00:00.000Z
23976,DA1,35689,20200810,2100-12-31T00:00:00.000Z
23976,DA1,35612,20140210-20140210-20140210,2100-12-31T00:00:00.000Z-2100-12-31T00:00:00.000Z-2100-12-31T00:00:00.000Z
23976,DA1,35602,20200826-20200826-20200826-20200826-20200826-20200826,2100-12-31T00:00:00.000Z-2100-12-31T00:00:00.000Z-2100-12-31T00:00:00.000Z-2100-12-31T00:00:00.000Z-2100-12-31T00:00:00.000Z-2100-12-31T00:00:00.000Z
23976,DA1,73518,20101213-20101213,2100-12-31T00:00:00.000Z-2100-12-31T00:00:00.000Z
23976,XWB,73665,20210602,2100-12-31T00:00:00.000Z
23976,DA2,35643,20171023-20171023-20171023-20171023-20171023-20171023-20171023,2100-12-31T00:00:00.000Z-2100-12-31T00:00:00.000Z-2100-12-31T00:00:00.000Z-2100-12-31T00:00:00.000Z-2100-12-31T00:00:00.000Z-2100-12-31T00:00:00.000Z-2100-12-31T00:00:00.000Z
23976,DA1,35645,20210308-20210308-20210308-20210308-20210308-20210308,2100-12-31T00:00:00.000Z-2100-12-31T00:00:00.000Z-2100-12-31T00:00:00.000Z-2100-12-31T00:00:00.000Z-2100-12-31T00:00:00.000Z-2100-12-31T00:00:00.000Z
23976,DA1,35647,20200810-20200810-20200810,2100-12-31T00:00:00.000Z-2100-12-31T00:00:00.000Z-2100-12-31T00:00:00.000Z
23976,DA1,78923,20140714,2100-12-31T00:00:00.000Z
23976,DA1,73963,20111128,2100-12-31T00:00:00.000Z
23976,DA1,35673,20170703,2100-12-31T00:00:00.000Z
23976,XWU,35690,20210531-20210531,2100-12-31T00:00:00.000Z-2100-12-31T00:00:00.000Z
23976,YWT,77616,20120730,2100-12-31T00:00:00.000Z
23976,DA1,39978,20120409-20120409-20120409-20120409-20120409-20120409-20120409,2100-12-31T00:00:00.000Z-2100-12-31T00:00:00.000Z-2100-12-31T00:00:00.000Z-2100-12-31T00:00:00.000Z-2100-12-31T00:00:00.000Z-2100-12-31T00:00:00.000Z-2100-12-31T00:00:00.000Z
23976,DA1,75060,20101129-20101129-20101129-20101129-20101129-20101129-20101129,2100-12-31T00:00:00.000Z-2100-12-31T00:00:00.000Z-2100-12-31T00:00:00.000Z-2100-12-31T00:00:00.000Z-2100-12-31T00:00:00.000Z-2100-12-31T00:00:00.000Z-2100-12-31T00:00:00.000Z
23976,YWL,78167,20130520,2100-12-31T00:00:00.000Z
23976,DA1,35619,20200330-20200330,2100-12-31T00:00:00.000Z-2100-12-31T00:00:00.000Z
23976,DA1,73846,20200427-20200427-20200427-20200427-20200427-20200427-20200427,2100-12-31T00:00:00.000Z-2100-12-31T00:00:00.000Z-2100-12-31T00:00:00.000Z-2100-12-31T00:00:00.000Z-2100-12-31T00:00:00.000Z-2100-12-31T00:00:00.000Z-2100-12-31T00:00:00.000Z
23976,DA1,79099,20171120,2100-12-31T00:00:00.000Z
23976,DA1,35648,20200810-20200810-20200810-20200810-20200810-20200810,2100-12-31T00:00:00.000Z-2100-12-31T00:00:00.000Z-2100-12-31T00:00:00.000Z-2100-12-31T00:00:00.000Z-2100-12-31T00:00:00.000Z-2100-12-31T00:00:00.000Z
23976,DA1,36577,20120123-20120123-20120123-20120123-20120123-20120123-20120123,2100-12-31T00:00:00.000Z-2100-12-31T00:00:00.000Z-2100-12-31T00:00:00.000Z-2100-12-31T00:00:00.000Z-2100-12-31T00:00:00.000Z-2100-12-31T00:00:00.000Z-2100-12-31T00:00:00.000Z
23976,DA1,77779,20181015,2100-12-31T00:00:00.000Z
23976,CC5,77605,20120723-20120723,2100-12-31T00:00:00.000Z-2100-12-31T00:00:00.000Z
23976,DA1,36950,20011231-20011231-20011231-20011231-20011231-20011231-20011231,2100-12-31T00:00:00.000Z-2100-12-31T00:00:00.000Z-2100-12-31T00:00:00.000Z-2100-12-31T00:00:00.000Z-2100-12-31T00:00:00.000Z-2100-12-31T00:00:00.000Z-2100-12-31T00:00:00.000Z
23976,DA1,77794,20181022-20181022,2100-12-31T00:00:00.000Z-2100-12-31T00:00:00.000Z
23976,YWL,78241,20130520,2100-12-31T00:00:00.000Z
23976,DA1,35652,20200810,2100-12-31T00:00:00.000Z
23976,CC6,77605,20120723-20120723,2100-12-31T00:00:00.000Z-2100-12-31T00:00:00.000Z
23976,DA1,74108,20180108,2100-12-31T00:00:00.000Z
23976,XWA,73667,20210602,2100-12-31T00:00:00.000Z
23976,DA1,74531,20181015,20210620
23976,DA1,74746,20080331-20080331-20080331-20080331-20080331-20080331-20080331,2100-12-31T00:00:00.000Z-2100-12-31T00:00:00.000Z-2100-12-31T00:00:00.000Z-2100-12-31T00:00:00.000Z-2100-12-31T00:00:00.000Z-2100-12-31T00:00:00.000Z-2100-12-31T00:00:00.000Z
23976,DA1,74505,20160912,2100-12-31T00:00:00.000Z
23976,YWM,74995,20180611,2100-12-31T00:00:00.000Z
23976,DA1,35650,20171023-20171023,2100-12-31T00:00:00.000Z-2100-12-31T00:00:00.000Z
24451,DA1,35673,20170703,2100-12-31T00:00:00.000Z
24451,XWQ,74059,20200323,2100-12-31T00:00:00.000Z
24451,DA1,74193,20160725,2100-12-31T00:00:00.000Z
24451,DA1,74606,20190729,2100-12-31T00:00:00.000Z
24451,DA1,35692,20171023-20171023-20171023,2100-12-31T00:00:00.000Z-2100-12-31T00:00:00.000Z-2100-12-31T00:00:00.000Z
24451,DA1,35648,20200810-20200810-20200810-20200810-20200810-20200810,2100-12-31T00:00:00.000Z-2100-12-31T00:00:00.000Z-2100-12-31T00:00:00.000Z-2100-12-31T00:00:00.000Z-2100-12-31T00:00:00.000Z-2100-12-31T00:00:00.000Z
24451,DA1,35686,20140714-20140714,2100-12-31T00:00:00.000Z-2100-12-31T00:00:00.000Z
24451,DA1,74108,20180108,2100-12-31T00:00:00.000Z
24451,YWT,77737,20120903,2100-12-31T00:00:00.000Z
24451,DA1,35612,20140210-20140210-20140210,2100-12-31T00:00:00.000Z-2100-12-31T00:00:00.000Z-2100-12-31T00:00:00.000Z
24451,DA1,73518,20101213-20101213,2100-12-31T00:00:00.000Z-2100-12-31T00:00:00.000Z
24451,DA1,77598,20131104,20210620
24451,YWL,78241,20130520,2100-12-31T00:00:00.000Z
24451,DA1,35694,20171023-20171023-20171023-20171023-20171023-20171023-20171023,2100-12-31T00:00:00.000Z-2100-12-31T00:00:00.000Z-2100-12-31T00:00:00.000Z-2100-12-31T00:00:00.000Z-2100-12-31T00:00:00.000Z-2100-12-31T00:00:00.000Z-2100-12-31T00:00:00.000Z
24451,XWG,73708,20190304-20190304,2100-12-31T00:00:00.000Z-2100-12-31T00:00:00.000Z
24451,DA1,74531,20181015,20210620
24451,DA1,77780,20181029,2100-12-31T00:00:00.000Z
24451,DA1,35619,20200330-20200330,2100-12-31T00:00:00.000Z-2100-12-31T00:00:00.000Z
24451,CC6,78302,20190225-20190225,2100-12-31T00:00:00.000Z-2100-12-31T00:00:00.000Z
24451,CC5,78302,20190225-20190225,2100-12-31T00:00:00.000Z-2100-12-31T00:00:00.000Z
24451,DA1,78488,20130902,2100-12-31T00:00:00.000Z
24451,DA1,79099,20171120,2100-12-31T00:00:00.000Z
24451,DA2,35693,20200622-20200622-20200622-20200622-20200622-20200622-20200622,2100-12-31T00:00:00.000Z-2100-12-31T00:00:00.000Z-2100-12-31T00:00:00.000Z-2100-12-31T00:00:00.000Z-2100-12-31T00:00:00.000Z-2100-12-31T00:00:00.000Z-2100-12-31T00:00:00.000Z
24451,XWB,73634,19991129,2100-12-31T00:00:00.000Z
24451,DA1,78483,20140630,2100-12-31T00:00:00.000Z
24451,DA1,35691,20171023-20171023-20171023-20171023-20171023-20171023,2100-12-31T00:00:00.000Z-2100-12-31T00:00:00.000Z-2100-12-31T00:00:00.000Z-2100-12-31T00:00:00.000Z-2100-12-31T00:00:00.000Z-2100-12-31T00:00:00.000Z
24451,DA1,75060,20101129-20101129-20101129-20101129-20101129-20101129-20101129,2100-12-31T00:00:00.000Z-2100-12-31T00:00:00.000Z-2100-12-31T00:00:00.000Z-2100-12-31T00:00:00.000Z-2100-12-31T00:00:00.000Z-2100-12-31T00:00:00.000Z-2100-12-31T00:00:00.000Z
24451,DA1,78627,20170123,2100-12-31T00:00:00.000Z
24451,DA1,73438,20201109,2100-12-31T00:00:00.000Z
24451,DA1,35647,20200810-20200810-20200810,2100-12-31T00:00:00.000Z-2100-12-31T00:00:00.000Z-2100-12-31T00:00:00.000Z
24451,XWU,35653,20210531-20210531,2100-12-31T00:00:00.000Z-2100-12-31T00:00:00.000Z
24451,DA2,35643,20171023-20171023-20171023-20171023-20171023-20171023-20171023,2100-12-31T00:00:00.000Z-2100-12-31T00:00:00.000Z-2100-12-31T00:00:00.000Z-2100-12-31T00:00:00.000Z-2100-12-31T00:00:00.000Z-2100-12-31T00:00:00.000Z-2100-12-31T00:00:00.000Z
24451,DA1,35688,20200810-20200810-20200810-20200810-20200810-20200810,2100-12-31T00:00:00.000Z-2100-12-31T00:00:00.000Z-2100-12-31T00:00:00.000Z-2100-12-31T00:00:00.000Z-2100-12-31T00:00:00.000Z-2100-12-31T00:00:00.000Z
24451,DA1,35602,20200826-20200826-20200826-20200826-20200826-20200826,2100-12-31T00:00:00.000Z-2100-12-31T00:00:00.000Z-2100-12-31T00:00:00.000Z-2100-12-31T00:00:00.000Z-2100-12-31T00:00:00.000Z-2100-12-31T00:00:00.000Z
24451,DA1,73723,20161212,2100-12-31T00:00:00.000Z
24451,DA1,73963,20111128,2100-12-31T00:00:00.000Z
24451,DA1,35645,20210308-20210308-20210308-20210308-20210308-20210308,2100-12-31T00:00:00.000Z-2100-12-31T00:00:00.000Z-2100-12-31T00:00:00.000Z-2100-12-31T00:00:00.000Z-2100-12-31T00:00:00.000Z-2100-12-31T00:00:00.000Z
24451,DA1,78923,20140714,2100-12-31T00:00:00.000Z
24451,DA1,74279,20170814,2100-12-31T00:00:00.000Z
24451,DA1,78801,20200203,2100-12-31T00:00:00.000Z
24451,YWM,74995,20180611,2100-12-31T00:00:00.000Z
24451,DA1,36577,20120123-20120123-20120123-20120123-20120123-20120123-20120123,2100-12-31T00:00:00.000Z-2100-12-31T00:00:00.000Z-2100-12-31T00:00:00.000Z-2100-12-31T00:00:00.000Z-2100-12-31T00:00:00.000Z-2100-12-31T00:00:00.000Z-2100-12-31T00:00:00.000Z
24451,DAY,35643,20171023-20171023-20171023-20171023-20171023-20171023-20171023,2100-12-31T00:00:00.000Z-2100-12-31T00:00:00.000Z-2100-12-31T00:00:00.000Z-2100-12-31T00:00:00.000Z-2100-12-31T00:00:00.000Z-2100-12-31T00:00:00.000Z-2100-12-31T00:00:00.000Z
24451,DA1,35652,20200810,2100-12-31T00:00:00.000Z
24451,DA1,35650,20171023-20171023,2100-12-31T00:00:00.000Z-2100-12-31T00:00:00.000Z
24451,DA1,35654,20200810-20200810-20200810-20200810-20200810-20200810,2100-12-31T00:00:00.000Z-2100-12-31T00:00:00.000Z-2100-12-31T00:00:00.000Z-2100-12-31T00:00:00.000Z-2100-12-31T00:00:00.000Z-2100-12-31T00:00:00.000Z
24451,DA1,78803,20181112,2100-12-31T00:00:00.000Z
24451,DA1,35644,20171023-20171023-20171023-20171023-20171023,2100-12-31T00:00:00.000Z-2100-12-31T00:00:00.000Z-2100-12-31T00:00:00.000Z-2100-12-31T00:00:00.000Z-2100-12-31T00:00:00.000Z
24451,DA1,35626,20200907,2100-12-31T00:00:00.000Z
24451,XWV,35646,20171023,2100-12-31T00:00:00.000Z
24451,DA1,39978,20120409-20120409-20120409-20120409-20120409-20120409-20120409,2100-12-31T00:00:00.000Z-2100-12-31T00:00:00.000Z-2100-12-31T00:00:00.000Z-2100-12-31T00:00:00.000Z-2100-12-31T00:00:00.000Z-2100-12-31T00:00:00.000Z-2100-12-31T00:00:00.000Z
24451,YWL,78167,20130520,2100-12-31T00:00:00.000Z
24451,DA1,74827,20201109,2100-12-31T00:00:00.000Z
24451,XWA,73657,20201019-20201019-20200427-20200427,2100-12-31T00:00:00.000Z-2100-12-31T00:00:00.000Z-2100-12-31T00:00:00.000Z-2100-12-31T00:00:00.000Z
24451,XWU,35656,20210531-20210531,2100-12-31T00:00:00.000Z-2100-12-31T00:00:00.000Z
24451,DA1,73846,20200427-20200427-20200427-20200427-20200427-20200427-20200427,2100-12-31T00:00:00.000Z-2100-12-31T00:00:00.000Z-2100-12-31T00:00:00.000Z-2100-12-31T00:00:00.000Z-2100-12-31T00:00:00.000Z-2100-12-31T00:00:00.000Z-2100-12-31T00:00:00.000Z
24451,DA2,35602,20200826-20200826-20200826-20200826-20200826-20200826,2100-12-31T00:00:00.000Z-2100-12-31T00:00:00.000Z-2100-12-31T00:00:00.000Z-2100-12-31T00:00:00.000Z-2100-12-31T00:00:00.000Z-2100-12-31T00:00:00.000Z
24451,DA1,35689,20200810,2100-12-31T00:00:00.000Z
24451,DA1,77779,20181015,2100-12-31T00:00:00.000Z
24451,DA1,35603,20170220-20170220-20170220,2100-12-31T00:00:00.000Z-2100-12-31T00:00:00.000Z-2100-12-31T00:00:00.000Z
24451,XWU,35690,20210531-20210531,2100-12-31T00:00:00.000Z-2100-12-31T00:00:00.000Z
24451,DA1,74746,20080331-20080331-20080331-20080331-20080331-20080331-20080331,2100-12-31T00:00:00.000Z-2100-12-31T00:00:00.000Z-2100-12-31T00:00:00.000Z-2100-12-31T00:00:00.000Z-2100-12-31T00:00:00.000Z-2100-12-31T00:00:00.000Z-2100-12-31T00:00:00.000Z
24451,XWH,77520,20121001-20121001,2100-12-31T00:00:00.000Z-2100-12-31T00:00:00.000Z
24451,DA1,35604,20160620-20160620-20160620-20160620,2100-12-31T00:00:00.000Z-2100-12-31T00:00:00.000Z-2100-12-31T00:00:00.000Z-2100-12-31T00:00:00.000Z
24451,DA1,74514,20161010,2100-12-31T00:00:00.000Z
24451,XWK,77617,20210531,2100-12-31T00:00:00.000Z
24451,DA1,73445,20200127,2100-12-31T00:00:00.000Z
24451,DA1,74505,20160912,2100-12-31T00:00:00.000Z
24451,DA1,74365,20160502-20160502-20160502-20160502-20160502-20160502-20160502,2100-12-31T00:00:00.000Z-2100-12-31T00:00:00.000Z-2100-12-31T00:00:00.000Z-2100-12-31T00:00:00.000Z-2100-12-31T00:00:00.000Z-2100-12-31T00:00:00.000Z-2100-12-31T00:00:00.000Z
24451,DA1,35624,20171023-20171023-20171023,2100-12-31T00:00:00.000Z-2100-12-31T00:00:00.000Z-2100-12-31T00:00:00.000Z
24451,DA1,77794,20181022-20181022,2100-12-31T00:00:00.000Z-2100-12-31T00:00:00.000Z
24451,DA1,36950,20011231-20011231-20011231-20011231-20011231-20011231-20011231,2100-12-31T00:00:00.000Z-2100-12-31T00:00:00.000Z-2100-12-31T00:00:00.000Z-2100-12-31T00:00:00.000Z-2100-12-31T00:00:00.000Z-2100-12-31T00:00:00.000Z-2100-12-31T00:00:00.000Z
25367,DA1,77598,2013-11-04T00:00:00.000Z,2021-06-20T00:00:00.000Z
25367,DA1,74531,2018-10-15T00:00:00.000Z,2021-06-20T00:00:00.000Z
26332,DA1,77598,2013-11-04T00:00:00.000Z,2021-06-20T00:00:00.000Z
26332,DA1,74531,2018-10-15T00:00:00.000Z,2021-06-20T00:00:00.000Z
29234,DA1,77598,2013-11-04T00:00:00.000Z,2021-06-20T00:00:00.000Z
29234,DA1,74531,2018-10-15T00:00:00.000Z,2021-06-20T00:00:00.000Z
32644,DA1,77682,2019-04-22T00:00:00.000Z,2021-05-16T00:00:00.000Z
34623,DA1,74531,2018-10-15T00:00:00.000Z,2021-06-20T00:00:00.000Z
34623,DA1,77598,2013-11-04T00:00:00.000Z,2021-06-20T00:00:00.000Z
34990,DA1,77682,2019-04-22T00:00:00.000Z,2021-05-16T00:00:00.000Z
35508,DA1,74531,2018-10-15T00:00:00.000Z,2021-06-20T00:00:00.000Z
35508,DA1,77598,2013-11-04T00:00:00.000Z,2021-06-20T00:00:00.000Z
35848,YWR,74263,2016-09-05T00:00:00.000Z,2021-07-04T00:00:00.000Z
36765,DA1,74531,2018-10-15T00:00:00.000Z,2021-06-20T00:00:00.000Z
36765,DA1,77598,2013-11-04T00:00:00.000Z,2021-06-20T00:00:00.000Z
36850,YWR,74263,2016-09-05T00:00:00.000Z-2016-09-05T00:00:00.000Z,2021-07-04T00:00:00.000Z-2021-07-04T00:00:00.000Z
37000,DAY,61622,2021-03-17T00:00:00.000Z-2021-03-17T00:00:00.000Z-2021-03-17T00:00:00.000Z-2021-03-17T00:00:00.000Z-2021-03-17T00:00:00.000Z-2021-03-17T00:00:00.000Z,2021-05-23T00:00:00.000Z-2021-05-23T00:00:00.000Z-2021-05-23T00:00:00.000Z-2021-05-23T00:00:00.000Z-2021-05-23T00:00:00.000Z-2021-05-23T00:00:00.000Z
38559,YWL,78168,2013-06-24T00:00:00.000Z,2021-01-31T00:00:00.000Z
38559,YWL,78239,2013-06-24T00:00:00.000Z,2021-01-31T00:00:00.000Z
38848,DA1,77598,2013-11-04T00:00:00.000Z,2021-06-20T00:00:00.000Z
38848,DA1,74531,2018-10-15T00:00:00.000Z,2021-06-20T00:00:00.000Z
38851,DA1,74531,2018-10-15T00:00:00.000Z,2021-06-20T00:00:00.000Z
38851,DA1,77598,2013-11-04T00:00:00.000Z,2021-06-20T00:00:00.000Z
40255,XWV,73435,2021-08-16T00:00:00.000Z,2100-12-31T00:00:00.000Z
41191,DA1,77598,2013-11-04T00:00:00.000Z,2021-06-20T00:00:00.000Z
41191,DA1,74531,2018-10-15T00:00:00.000Z,2021-06-20T00:00:00.000Z
41523,DA1,74531,2018-10-15T00:00:00.000Z,2021-06-20T00:00:00.000Z
41523,DA1,77598,2013-11-04T00:00:00.000Z,2021-06-20T00:00:00.000Z
