[connection.provider] loaded db configuration for mdb-ordering -> mongodb+srv://risOrderingAPI:RisOrdApi7EleveN@ris-store-ordering-rmi0k.mongodb.net/ordering?authSource=admin&replicaSet=ris-store-ordering-shard-0&readPreference=primary&appname=MongoDB%20Compass&retryWrites=true&ssl=true
[connection.provider] Connecting to mdb-ordering
[connection.provider] Connection SUCCESS!
[connection.provider] Created new connection to mdb-ordering
[connection.provider] loaded db configuration for mdb-catalog -> mongodb+srv://risOrderingAPI:RisOrdApi7EleveN@ris-7md-prod.rmi0k.mongodb.net/risprod?authSource=admin
[connection.provider] Connecting to mdb-catalog
[connection.provider] Connection SUCCESS!
[connection.provider] Created new connection to mdb-catalog
Db not yet connected:  { s1: 2, s2: 2 }
Db not yet connected:  { s1: 2, s2: 2 }
Db not yet connected:  { s1: 2, s2: 2 }
Db not yet connected:  { s1: 1, s2: 1 }
Opened connection to dbs.
Detect stores with bad orders:
[[zzzzzzzzzzzzzzzzzz E (1244)zzzzzzzz zzzz zzzzzz
Checking for: 22657,23030,23081,23156,23242
[0] Checking for: 22657
[0] Checking for: 23030
[0] Checking for: 23081
[0] Checking for: 23156
[0] Checking for: 23242
Ok:  [ '22657', '23030', '23081', '23156', '23242' ]
Checking for: 23276,23337,23358,23363,23428
[5] Checking for: 23276
[5] Checking for: 23337
[5] Checking for: 23358
[5] Checking for: 23363
[5] Checking for: 23428
Ok:  [ '23276', '23337', null, null, '23428' ]
Checking for: 23665,23676,18969,19057,19108
[10] Checking for: 23665
[10] Checking for: 23676
[10] Checking for: 18969
[10] Checking for: 19057
[10] Checking for: 19108
Ok:  [ null, '23676', null, null, null ]
Checking for: 19249,19389,19634,19721,19870
[15] Checking for: 19249
[15] Checking for: 19389
[15] Checking for: 19634
[15] Checking for: 19721
[15] Checking for: 19870
Ok:  [ null, null, null, null, '19870' ]
Checking for: 19925,20129,20159,20294,20372
[20] Checking for: 19925
[20] Checking for: 20129
[20] Checking for: 20159
[20] Checking for: 20294
[20] Checking for: 20372
Ok:  [ '19925', null, null, '20294', null ]
Checking for: 20435,20480,20517,20700,20717
[25] Checking for: 20435
[25] Checking for: 20480
[25] Checking for: 20517
[25] Checking for: 20700
[25] Checking for: 20717
Ok:  [ '20435', null, '20517', '20700', '20717' ]
Checking for: 20728,20966,20967,20968,21026
[30] Checking for: 20728
[30] Checking for: 20966
[30] Checking for: 20967
[30] Checking for: 20968
[30] Checking for: 21026
Ok:  [ null, null, null, null, null ]
Checking for: 21139,21162,21744,21980,22086
[35] Checking for: 21139
[35] Checking for: 21162
[35] Checking for: 21744
[35] Checking for: 21980
[35] Checking for: 22086
Ok:  [ '21139', null, null, '21980', null ]
Checking for: 22273,22299,10056,10117,10147
[40] Checking for: 22273
[40] Checking for: 22299
[40] Checking for: 10056
[40] Checking for: 10117
[40] Checking for: 10147
Ok:  [ '22273', '22299', '10056', '10117', '10147' ]
Checking for: 10202,10260,10298,10317,10491
[45] Checking for: 10202
[45] Checking for: 10260
[45] Checking for: 10298
[45] Checking for: 10317
[45] Checking for: 10491
Ok:  [ '10202', null, null, null, '10491' ]
Checking for: 10529,10649,10677,10709,10761
[50] Checking for: 10529
[50] Checking for: 10649
[50] Checking for: 10677
[50] Checking for: 10709
[50] Checking for: 10761
Ok:  [ null, null, '10677', '10709', '10761' ]
Checking for: 10769,10775,10787,10862,10882
[55] Checking for: 10769
[55] Checking for: 10775
[55] Checking for: 10787
[55] Checking for: 10862
[55] Checking for: 10882
Ok:  [ '10769', '10775', '10787', null, '10882' ]
Checking for: 10912,10923,10954,10982,11002
[60] Checking for: 10912
[60] Checking for: 10923
[60] Checking for: 10954
[60] Checking for: 10982
[60] Checking for: 11002
Ok:  [ null, '10923', '10954', '10982', '11002' ]
Checking for: 11024,11028,11037,11042,11044
[65] Checking for: 11024
[65] Checking for: 11028
[65] Checking for: 11037
[65] Checking for: 11042
[65] Checking for: 11044
Ok:  [ '11024', '11028', null, null, null ]
Checking for: 11080,11128,11151,11155,11161
[70] Checking for: 11080
[70] Checking for: 11128
[70] Checking for: 11151
[70] Checking for: 11155
[70] Checking for: 11161
Ok:  [ '11080', null, null, null, null ]
Checking for: 11178,11181,11199,11206,11207
[75] Checking for: 11178
[75] Checking for: 11181
[75] Checking for: 11199
[75] Checking for: 11206
[75] Checking for: 11207
Ok:  [ null, null, null, null, null ]
Checking for: 11237,11240,11241,11270,11274
[80] Checking for: 11237
[80] Checking for: 11240
[80] Checking for: 11241
[80] Checking for: 11270
[80] Checking for: 11274
Ok:  [ null, null, null, '11270', '11274' ]
Checking for: 11282,11309,11328,11372,11393
[85] Checking for: 11282
[85] Checking for: 11309
[85] Checking for: 11328
[85] Checking for: 11372
[85] Checking for: 11393
Ok:  [ '11282', '11309', '11328', '11372', '11393' ]
Checking for: 11431,11451,11503,11556,11590
[90] Checking for: 11431
[90] Checking for: 11451
[90] Checking for: 11503
[90] Checking for: 11556
[90] Checking for: 11590
Ok:  [ '11431', null, null, null, '11590' ]
Checking for: 11595,11658,11681,11707,11727
[95] Checking for: 11595
[95] Checking for: 11658
[95] Checking for: 11681
[95] Checking for: 11707
[95] Checking for: 11727
Ok:  [ '11595', null, null, null, '11727' ]
Checking for: 11732,11974,11976,13426,13438
[100] Checking for: 11732
[100] Checking for: 11974
[100] Checking for: 11976
[100] Checking for: 13426
[100] Checking for: 13438
Ok:  [ '11732', null, null, null, null ]
Checking for: 13440,13453,13462,13465,28951
[105] Checking for: 13440
[105] Checking for: 13453
[105] Checking for: 13462
[105] Checking for: 13465
[105] Checking for: 28951
Ok:  [ null, null, null, null, null ]
Checking for: 28953,29216,29775,29776,29779
[110] Checking for: 28953
[110] Checking for: 29216
[110] Checking for: 29775
[110] Checking for: 29776
[110] Checking for: 29779
Ok:  [ null, '29216', '29775', '29776', null ]
Checking for: 29937,30004,30032,30059,30238
[115] Checking for: 29937
[115] Checking for: 30004
[115] Checking for: 30032
[115] Checking for: 30059
[115] Checking for: 30238
Ok:  [ null, null, '30032', '30059', null ]
Checking for: 30290,30479,32124,32127,32135
[120] Checking for: 30290
[120] Checking for: 30479
[120] Checking for: 32124
[120] Checking for: 32127
[120] Checking for: 32135
Ok:  [ null, '30479', null, null, '32135' ]
Checking for: 32171,32176,32198,32209,32220
[125] Checking for: 32171
[125] Checking for: 32176
[125] Checking for: 32198
[125] Checking for: 32209
[125] Checking for: 32220
Ok:  [ null, '32176', '32198', null, '32220' ]
Checking for: 32223,32238,32244,32251,32256
[130] Checking for: 32223
[130] Checking for: 32238
[130] Checking for: 32244
[130] Checking for: 32251
[130] Checking for: 32256
Ok:  [ '32223', null, null, null, null ]
Checking for: 32287,32330,32346,32380,32394
[135] Checking for: 32287
[135] Checking for: 32330
[135] Checking for: 32346
[135] Checking for: 32380
[135] Checking for: 32394
Ok:  [ '32287', null, null, null, '32394' ]
Checking for: 32407,32437,32441,32442,32471
[140] Checking for: 32407
[140] Checking for: 32437
[140] Checking for: 32441
[140] Checking for: 32442
[140] Checking for: 32471
Ok:  [ null, null, null, null, null ]
Checking for: 32480,32514,32521,32571,32578
[145] Checking for: 32480
[145] Checking for: 32514
[145] Checking for: 32521
[145] Checking for: 32571
[145] Checking for: 32578
Ok:  [ null, null, null, null, null ]
Checking for: 32581,32582,32594,32595,32635
[150] Checking for: 32581
[150] Checking for: 32582
[150] Checking for: 32594
[150] Checking for: 32595
[150] Checking for: 32635
Ok:  [ '32581', null, null, null, null ]
Checking for: 32660,32682,32685,32713,32725
[155] Checking for: 32660
[155] Checking for: 32682
[155] Checking for: 32685
[155] Checking for: 32713
[155] Checking for: 32725
Ok:  [ '32660', null, '32685', null, null ]
Checking for: 32726,34751,34794,34809,34821
[160] Checking for: 32726
[160] Checking for: 34751
[160] Checking for: 34794
[160] Checking for: 34809
[160] Checking for: 34821
Ok:  [ null, null, null, null, '34821' ]
Checking for: 34836,34837,34838,34845,34852
[165] Checking for: 34836
[165] Checking for: 34837
[165] Checking for: 34838
[165] Checking for: 34845
[165] Checking for: 34852
Ok:  [ null, null, null, '34845', null ]
Checking for: 34855,34871,34877,34905,34993
[170] Checking for: 34855
[170] Checking for: 34871
[170] Checking for: 34877
[170] Checking for: 34905
[170] Checking for: 34993
Ok:  [ '34855', '34871', '34877', '34905', null ]
Checking for: 35005,35080,35090,35111,35120
[175] Checking for: 35005
[175] Checking for: 35080
[175] Checking for: 35090
[175] Checking for: 35111
[175] Checking for: 35120
Ok:  [ '35005', '35080', '35090', '35111', null ]
Checking for: 35123,35124,35130,35132,35135
[180] Checking for: 35123
[180] Checking for: 35124
[180] Checking for: 35130
[180] Checking for: 35132
[180] Checking for: 35135
Ok:  [ '35123', null, '35130', '35132', null ]
Checking for: 35141,35148,35166,35175,35195
[185] Checking for: 35141
[185] Checking for: 35148
[185] Checking for: 35166
[185] Checking for: 35175
[185] Checking for: 35195
Ok:  [ null, '35148', '35166', '35175', null ]
Checking for: 35205,35232,35237,35238,35239
[190] Checking for: 35205
[190] Checking for: 35232
[190] Checking for: 35237
[190] Checking for: 35238
[190] Checking for: 35239
Ok:  [ '35205', '35232', '35237', '35238', '35239' ]
Checking for: 32752,32763,32771,32772,32802
[195] Checking for: 32752
[195] Checking for: 32763
[195] Checking for: 32771
[195] Checking for: 32772
[195] Checking for: 32802
Ok:  [ null, null, null, null, null ]
Checking for: 32817,32852,32868,32899,32950
[200] Checking for: 32817
[200] Checking for: 32852
[200] Checking for: 32868
[200] Checking for: 32899
[200] Checking for: 32950
Ok:  [ null, null, '32868', '32899', null ]
Checking for: 32961,32963,32965,32966,32976
[205] Checking for: 32961
[205] Checking for: 32963
[205] Checking for: 32965
[205] Checking for: 32966
[205] Checking for: 32976
Ok:  [ '32961', null, '32965', '32966', '32976' ]
Checking for: 32983,32995,33087,33176,33192
[210] Checking for: 32983
[210] Checking for: 32995
[210] Checking for: 33087
[210] Checking for: 33176
[210] Checking for: 33192
Ok:  [ '32983', '32995', null, null, '33192' ]
Checking for: 33226,33232,33255,33268,33290
[215] Checking for: 33226
[215] Checking for: 33232
[215] Checking for: 33255
[215] Checking for: 33268
[215] Checking for: 33290
Ok:  [ null, null, null, null, null ]
Checking for: 33301,33305,33317,33327,33340
[220] Checking for: 33301
[220] Checking for: 33305
[220] Checking for: 33317
[220] Checking for: 33327
[220] Checking for: 33340
Ok:  [ null, '33305', null, null, null ]
Checking for: 33388,33392,33394,33411,33432
[225] Checking for: 33388
[225] Checking for: 33392
[225] Checking for: 33394
[225] Checking for: 33411
[225] Checking for: 33432
Ok:  [ '33388', null, null, null, null ]
Checking for: 33475,33549,33605,33662,33693
[230] Checking for: 33475
[230] Checking for: 33549
[230] Checking for: 33605
[230] Checking for: 33662
[230] Checking for: 33693
Ok:  [ null, null, null, null, null ]
Checking for: 33974,33975,34006,34021,34051
[235] Checking for: 33974
[235] Checking for: 33975
[235] Checking for: 34006
[235] Checking for: 34021
[235] Checking for: 34051
Ok:  [ '33974', null, null, null, null ]
Checking for: 34076,34082,34083,34160,34162
[240] Checking for: 34076
[240] Checking for: 34082
[240] Checking for: 34083
[240] Checking for: 34160
[240] Checking for: 34162
Ok:  [ null, '34082', null, null, null ]
Checking for: 34182,34247,34279,34313,34325
[245] Checking for: 34182
[245] Checking for: 34247
[245] Checking for: 34279
[245] Checking for: 34313
[245] Checking for: 34325
Ok:  [ null, null, '34279', null, null ]
Checking for: 34338,34352,34366,34373,34385
[250] Checking for: 34338
[250] Checking for: 34352
[250] Checking for: 34366
[250] Checking for: 34373
[250] Checking for: 34385
Ok:  [ null, null, '34366', null, null ]
Checking for: 34389,34412,34413,34425,34428
[255] Checking for: 34389
[255] Checking for: 34412
[255] Checking for: 34413
[255] Checking for: 34425
[255] Checking for: 34428
Ok:  [ null, null, null, null, null ]
Checking for: 34514,34519,34523,34558,34559
[260] Checking for: 34514
[260] Checking for: 34519
[260] Checking for: 34523
[260] Checking for: 34558
[260] Checking for: 34559
Ok:  [ null, null, '34523', '34558', '34559' ]
Checking for: 23700,23741,23753,23786,23854
[265] Checking for: 23700
[265] Checking for: 23741
[265] Checking for: 23753
[265] Checking for: 23786
[265] Checking for: 23854
Ok:  [ '23700', null, null, null, '23854' ]
Checking for: 23872,24055,24093,24162,24164
[270] Checking for: 23872
[270] Checking for: 24055
[270] Checking for: 24093
[270] Checking for: 24162
[270] Checking for: 24164
Ok:  [ null, null, '24093', '24162', '24164' ]
Checking for: 24186,24232,24259,24350,24427
[275] Checking for: 24186
[275] Checking for: 24232
[275] Checking for: 24259
[275] Checking for: 24350
[275] Checking for: 24427
Ok:  [ null, '24232', null, null, null ]
Checking for: 24552,24558,24591,24624,24644
[280] Checking for: 24552
[280] Checking for: 24558
[280] Checking for: 24591
[280] Checking for: 24624
[280] Checking for: 24644
Ok:  [ '24552', null, null, '24624', null ]
Checking for: 24724,25059,25097,25240,25370
[285] Checking for: 24724
[285] Checking for: 25059
[285] Checking for: 25097
[285] Checking for: 25240
[285] Checking for: 25370
Ok:  [ '24724', null, null, null, null ]
Checking for: 25386,25414,25450,25495,25596
[290] Checking for: 25386
[290] Checking for: 25414
[290] Checking for: 25450
[290] Checking for: 25495
[290] Checking for: 25596
Ok:  [ null, '25414', '25450', '25495', null ]
Checking for: 25715,25849,26099,26152,26169
[295] Checking for: 25715
[295] Checking for: 25849
[295] Checking for: 26099
[295] Checking for: 26152
[295] Checking for: 26169
Ok:  [ null, null, null, '26152', null ]
Checking for: 26199,26251,26347,26375,26670
[300] Checking for: 26199
[300] Checking for: 26251
[300] Checking for: 26347
[300] Checking for: 26375
[300] Checking for: 26670
Ok:  [ '26199', null, '26347', '26375', null ]
Checking for: 26801,26830,26894,27075,27080
[305] Checking for: 26801
[305] Checking for: 26830
[305] Checking for: 26894
[305] Checking for: 27075
[305] Checking for: 27080
Ok:  [ '26801', '26830', null, null, '27080' ]
Checking for: 27322,27335,27391,27471,27501
[310] Checking for: 27322
[310] Checking for: 27335
[310] Checking for: 27391
[310] Checking for: 27471
[310] Checking for: 27501
Ok:  [ null, null, '27391', null, null ]
Checking for: 27735,27861,28316,28434,28565
[315] Checking for: 27735
[315] Checking for: 27861
[315] Checking for: 28316
[315] Checking for: 28434
[315] Checking for: 28565
Ok:  [ '27735', null, null, null, '28565' ]
Checking for: 28596,36873,36905,36910,36913
[320] Checking for: 28596
[320] Checking for: 36873
[320] Checking for: 36905
[320] Checking for: 36910
[320] Checking for: 36913
Ok:  [ null, '36873', null, null, null ]
Checking for: 36926,36938,36966,36976,36998
[325] Checking for: 36926
[325] Checking for: 36938
[325] Checking for: 36966
[325] Checking for: 36976
[325] Checking for: 36998
Ok:  [ null, null, '36966', '36976', '36998' ]
Checking for: 37007,37011,37025,37035,37038
[330] Checking for: 37007
[330] Checking for: 37011
[330] Checking for: 37025
[330] Checking for: 37035
[330] Checking for: 37038
Ok:  [ null, '37011', null, null, null ]
Checking for: 37043,37142,37155,37186,37188
[335] Checking for: 37043
[335] Checking for: 37142
[335] Checking for: 37155
[335] Checking for: 37186
[335] Checking for: 37188
Ok:  [ '37043', null, null, null, null ]
Checking for: 37235,37242,37245,37251,37280
[340] Checking for: 37235
[340] Checking for: 37242
[340] Checking for: 37245
[340] Checking for: 37251
[340] Checking for: 37280
Ok:  [ '37235', '37242', null, '37251', null ]
Checking for: 37294,37298,37325,37344,37371
[345] Checking for: 37294
[345] Checking for: 37298
[345] Checking for: 37325
[345] Checking for: 37344
[345] Checking for: 37371
Ok:  [ '37294', '37298', '37325', null, null ]
Checking for: 37373,37389,37405,37411,37424
[350] Checking for: 37373
[350] Checking for: 37389
[350] Checking for: 37405
[350] Checking for: 37411
[350] Checking for: 37424
Ok:  [ null, '37389', '37405', null, '37424' ]
Checking for: 37427,37439,37442,37456,37485
[355] Checking for: 37427
[355] Checking for: 37439
[355] Checking for: 37442
[355] Checking for: 37456
[355] Checking for: 37485
Ok:  [ null, '37439', null, null, null ]
Checking for: 37499,37502,37521,37548,37579
[360] Checking for: 37499
[360] Checking for: 37502
[360] Checking for: 37521
[360] Checking for: 37548
[360] Checking for: 37579
Ok:  [ null, null, null, null, null ]
Checking for: 37612,37625,37677,37693,37718
[365] Checking for: 37612
[365] Checking for: 37625
[365] Checking for: 37677
[365] Checking for: 37693
[365] Checking for: 37718
Ok:  [ '37612', null, null, null, null ]
Checking for: 37733,37757,37765,37918,39608
[370] Checking for: 37733
[370] Checking for: 37757
[370] Checking for: 37765
[370] Checking for: 37918
[370] Checking for: 39608
Ok:  [ null, null, '37765', null, null ]
Checking for: 39615,39640,39694,39710,39754
[375] Checking for: 39615
[375] Checking for: 39640
[375] Checking for: 39694
[375] Checking for: 39710
[375] Checking for: 39754
Ok:  [ null, null, null, '39710', null ]
Checking for: 39765,39780,39786,39788,39792
[380] Checking for: 39765
[380] Checking for: 39780
[380] Checking for: 39786
[380] Checking for: 39788
[380] Checking for: 39792
Ok:  [ '39765', null, null, null, null ]
Checking for: 39812,39816,39879,39898,39900
[385] Checking for: 39812
[385] Checking for: 39816
[385] Checking for: 39879
[385] Checking for: 39898
[385] Checking for: 39900
Ok:  [ null, null, null, null, '39900' ]
Checking for: 39901,39905,39911,39924,39942
[390] Checking for: 39901
[390] Checking for: 39905
[390] Checking for: 39911
[390] Checking for: 39924
[390] Checking for: 39942
Ok:  [ '39901', null, '39911', null, null ]
Checking for: 39945,39952,39958,39979,39985
[395] Checking for: 39945
[395] Checking for: 39952
[395] Checking for: 39958
[395] Checking for: 39979
[395] Checking for: 39985
Ok:  [ null, '39952', null, null, null ]
Checking for: 39998,40014,40018,40020,40052
[400] Checking for: 39998
[400] Checking for: 40014
[400] Checking for: 40018
[400] Checking for: 40020
[400] Checking for: 40052
Ok:  [ null, null, null, null, null ]
Checking for: 40056,40057,40069,40084,40087
[405] Checking for: 40056
[405] Checking for: 40057
[405] Checking for: 40069
[405] Checking for: 40084
[405] Checking for: 40087
Ok:  [ null, null, '40069', null, null ]
Checking for: 40110,40143,40156,40169,40173
[410] Checking for: 40110
[410] Checking for: 40143
[410] Checking for: 40156
[410] Checking for: 40169
[410] Checking for: 40173
Ok:  [ null, null, null, null, '40173' ]
Checking for: 40188,40193,40194,40198,40201
[415] Checking for: 40188
[415] Checking for: 40193
[415] Checking for: 40194
[415] Checking for: 40198
[415] Checking for: 40201
Ok:  [ null, null, null, null, null ]
Checking for: 37925,37936,38036,38037,38064
[420] Checking for: 37925
[420] Checking for: 37936
[420] Checking for: 38036
[420] Checking for: 38037
[420] Checking for: 38064
Ok:  [ '37925', null, null, null, null ]
Checking for: 38067,38074,38077,38090,38110
[425] Checking for: 38067
[425] Checking for: 38074
[425] Checking for: 38077
[425] Checking for: 38090
[425] Checking for: 38110
Ok:  [ null, null, '38077', null, null ]
Checking for: 38163,38176,38192,38196,38215
[430] Checking for: 38163
[430] Checking for: 38176
[430] Checking for: 38192
[430] Checking for: 38196
[430] Checking for: 38215
Ok:  [ '38163', '38176', '38192', '38196', null ]
Checking for: 38232,38237,38252,38303,38309
[435] Checking for: 38232
[435] Checking for: 38237
[435] Checking for: 38252
[435] Checking for: 38303
[435] Checking for: 38309
Ok:  [ null, null, null, null, null ]
Checking for: 38340,38377,38443,38462,38491
[440] Checking for: 38340
[440] Checking for: 38377
[440] Checking for: 38443
[440] Checking for: 38462
[440] Checking for: 38491
Ok:  [ null, '38377', null, null, null ]
Checking for: 38624,38684,38720,38740,38778
[445] Checking for: 38624
[445] Checking for: 38684
[445] Checking for: 38720
[445] Checking for: 38740
[445] Checking for: 38778
Ok:  [ null, null, null, null, null ]
Checking for: 38879,38880,38890,38941,38968
[450] Checking for: 38879
[450] Checking for: 38880
[450] Checking for: 38890
[450] Checking for: 38941
[450] Checking for: 38968
Ok:  [ '38879', null, null, null, null ]
Checking for: 38980,39018,39084,39088,39192
[455] Checking for: 38980
[455] Checking for: 39018
[455] Checking for: 39084
[455] Checking for: 39088
[455] Checking for: 39192
Ok:  [ null, '39018', null, '39088', null ]
Checking for: 39195,39291,39330,39368,39373
[460] Checking for: 39195
[460] Checking for: 39291
[460] Checking for: 39330
[460] Checking for: 39368
[460] Checking for: 39373
Ok:  [ null, null, null, '39368', null ]
Checking for: 39419,39491,39497,39511,39549
[465] Checking for: 39419
[465] Checking for: 39491
[465] Checking for: 39497
[465] Checking for: 39511
[465] Checking for: 39549
Ok:  [ null, null, null, '39511', null ]
Checking for: 39571,35273,35278,35279,35294
[470] Checking for: 39571
[470] Checking for: 35273
[470] Checking for: 35278
[470] Checking for: 35279
[470] Checking for: 35294
Ok:  [ null, null, '35278', '35279', null ]
Checking for: 35314,35368,35429,35488,35510
[475] Checking for: 35314
[475] Checking for: 35368
[475] Checking for: 35429
[475] Checking for: 35488
[475] Checking for: 35510
Ok:  [ null, null, '35429', null, '35510' ]
Checking for: 35537,35539,35552,35560,35563
[480] Checking for: 35537
[480] Checking for: 35539
[480] Checking for: 35552
[480] Checking for: 35560
[480] Checking for: 35563
Ok:  [ null, '35539', '35552', '35560', '35563' ]
Checking for: 35565,35568,35572,35574,35579
[485] Checking for: 35565
[485] Checking for: 35568
[485] Checking for: 35572
[485] Checking for: 35574
[485] Checking for: 35579
Ok:  [ null, null, null, null, '35579' ]
Checking for: 35584,35594,35602,35621,35642
[490] Checking for: 35584
[490] Checking for: 35594
[490] Checking for: 35602
[490] Checking for: 35621
[490] Checking for: 35642
Ok:  [ '35584', null, '35602', null, null ]
Checking for: 35659,35669,35670,35698,35781
[495] Checking for: 35659
[495] Checking for: 35669
[495] Checking for: 35670
[495] Checking for: 35698
[495] Checking for: 35781
Ok:  [ null, null, null, null, null ]
Checking for: 35820,35904,35913,35914,35929
[500] Checking for: 35820
[500] Checking for: 35904
[500] Checking for: 35913
[500] Checking for: 35914
[500] Checking for: 35929
Ok:  [ null, null, null, null, '35929' ]
Checking for: 35938,35944,35946,35955,35965
[505] Checking for: 35938
[505] Checking for: 35944
[505] Checking for: 35946
[505] Checking for: 35955
[505] Checking for: 35965
Ok:  [ '35938', null, null, '35955', '35965' ]
Checking for: 35966,35987,36023,36064,36071
[510] Checking for: 35966
[510] Checking for: 35987
[510] Checking for: 36023
[510] Checking for: 36064
[510] Checking for: 36071
Ok:  [ '35966', null, null, '36064', '36071' ]
Checking for: 36085,36144,36159,36162,36180
[515] Checking for: 36085
[515] Checking for: 36144
[515] Checking for: 36159
[515] Checking for: 36162
[515] Checking for: 36180
Ok:  [ null, null, null, null, null ]
Checking for: 36222,36228,36232,36234,36431
[520] Checking for: 36222
[520] Checking for: 36228
[520] Checking for: 36232
[520] Checking for: 36234
[520] Checking for: 36431
Ok:  [ null, null, null, null, null ]
Checking for: 36468,36493,36684,36738,36771
[525] Checking for: 36468
[525] Checking for: 36493
[525] Checking for: 36684
[525] Checking for: 36738
[525] Checking for: 36771
Ok:  [ null, '36493', null, null, '36771' ]
Checking for: 36779,36824,36843,36852,36854
[530] Checking for: 36779
[530] Checking for: 36824
[530] Checking for: 36843
[530] Checking for: 36852
[530] Checking for: 36854
Ok:  [ '36779', null, '36843', '36852', '36854' ]
Checking for: 41888,41971,41981,41999,40212
[535] Checking for: 41888
[535] Checking for: 41971
[535] Checking for: 41981
[535] Checking for: 41999
[535] Checking for: 40212
Ok:  [ null, null, null, null, null ]
Checking for: 40213,40220,40221,40222,40225
[540] Checking for: 40213
[540] Checking for: 40220
[540] Checking for: 40221
[540] Checking for: 40222
[540] Checking for: 40225
Ok:  [ null, null, '40221', null, null ]
Checking for: 40247,40251,40254,40282,40290
[545] Checking for: 40247
[545] Checking for: 40251
[545] Checking for: 40254
[545] Checking for: 40282
[545] Checking for: 40290
Ok:  [ null, null, null, null, null ]
Checking for: 40294,40295,40302,40313,40319
[550] Checking for: 40294
[550] Checking for: 40295
[550] Checking for: 40302
[550] Checking for: 40313
[550] Checking for: 40319
Ok:  [ null, null, null, null, '40319' ]
Checking for: 40323,40329,40332,40341,40342
[555] Checking for: 40323
[555] Checking for: 40329
[555] Checking for: 40332
[555] Checking for: 40341
[555] Checking for: 40342
Ok:  [ null, null, null, null, null ]
Checking for: 40347,40348,40352,40353,40354
[560] Checking for: 40347
[560] Checking for: 40348
[560] Checking for: 40352
[560] Checking for: 40353
[560] Checking for: 40354
Ok:  [ null, null, '40352', '40353', null ]
Checking for: 40368,40370,40374,40382,40386
[565] Checking for: 40368
[565] Checking for: 40370
[565] Checking for: 40374
[565] Checking for: 40382
[565] Checking for: 40386
Ok:  [ null, null, null, null, null ]
Checking for: 40390,40409,40411,40418,40441
[570] Checking for: 40390
[570] Checking for: 40409
[570] Checking for: 40411
[570] Checking for: 40418
[570] Checking for: 40441
Ok:  [ null, null, null, null, null ]
Checking for: 40442,40455,40466,40482,40484
[575] Checking for: 40442
[575] Checking for: 40455
[575] Checking for: 40466
[575] Checking for: 40482
[575] Checking for: 40484
Ok:  [ null, null, null, null, null ]
Checking for: 40493,40495,40499,40503,41113
[580] Checking for: 40493
[580] Checking for: 40495
[580] Checking for: 40499
[580] Checking for: 40503
[580] Checking for: 41113
Ok:  [ null, null, null, null, null ]
Checking for: 41148,41164,41165,41279,41280
[585] Checking for: 41148
[585] Checking for: 41164
[585] Checking for: 41165
[585] Checking for: 41279
[585] Checking for: 41280
Ok:  [ null, null, null, null, null ]
Checking for: 41292,41308,41318,41322,41335
[590] Checking for: 41292
[590] Checking for: 41308
[590] Checking for: 41318
[590] Checking for: 41322
[590] Checking for: 41335
Ok:  [ null, null, null, null, null ]
Checking for: 41352,41514,41550,41559,41571
[595] Checking for: 41352
[595] Checking for: 41514
[595] Checking for: 41550
[595] Checking for: 41559
[595] Checking for: 41571
Ok:  [ null, null, null, null, null ]
Checking for: 41622,41624,41633,41634,41693
[600] Checking for: 41622
[600] Checking for: 41624
[600] Checking for: 41633
[600] Checking for: 41634
[600] Checking for: 41693
Ok:  [ null, null, null, null, null ]
Checking for: 41709,41742,41750,41753,41790
[605] Checking for: 41709
[605] Checking for: 41742
[605] Checking for: 41750
[605] Checking for: 41753
[605] Checking for: 41790
Ok:  [ null, null, null, null, null ]
Checking for: 41807,41834,41844,41853,41870
[610] Checking for: 41807
[610] Checking for: 41834
[610] Checking for: 41844
[610] Checking for: 41853
[610] Checking for: 41870
Ok:  [ null, null, null, null, null ]
Checking for: 15123,15560,15801,15891,15948
[615] Checking for: 15123
[615] Checking for: 15560
[615] Checking for: 15801
[615] Checking for: 15891
[615] Checking for: 15948
Ok:  [ null, '15560', '15801', null, '15948' ]
Checking for: 16019,16157,16158,16170,16280
[620] Checking for: 16019
[620] Checking for: 16157
[620] Checking for: 16158
[620] Checking for: 16170
[620] Checking for: 16280
Ok:  [ null, null, '16158', '16170', null ]
Checking for: 16335,16355,16361,16436,16540
[625] Checking for: 16335
[625] Checking for: 16355
[625] Checking for: 16361
[625] Checking for: 16436
[625] Checking for: 16540
Ok:  [ '16335', null, null, null, null ]
Checking for: 16666,16771,17672,17697,18142
[630] Checking for: 16666
[630] Checking for: 16771
[630] Checking for: 17672
[630] Checking for: 17697
[630] Checking for: 18142
Ok:  [ null, null, null, null, null ]
Checking for: 18184,18222,18359,18580,18609
[635] Checking for: 18184
[635] Checking for: 18222
[635] Checking for: 18359
[635] Checking for: 18580
[635] Checking for: 18609
Ok:  [ null, null, null, null, null ]
Checking for: 18623,18667,18677,22719,22756
[640] Checking for: 18623
[640] Checking for: 18667
[640] Checking for: 18677
[640] Checking for: 22719
[640] Checking for: 22756
Ok:  [ null, '18667', null, null, null ]
Checking for: 22825,22841,23035,23097,23335
[645] Checking for: 22825
[645] Checking for: 22841
[645] Checking for: 23035
[645] Checking for: 23097
[645] Checking for: 23335
Ok:  [ null, '22841', '23035', '23097', '23335' ]
Checking for: 23345,23403,23436,23450,23622
[650] Checking for: 23345
[650] Checking for: 23403
[650] Checking for: 23436
[650] Checking for: 23450
[650] Checking for: 23622
Ok:  [ '23345', null, '23436', null, null ]
Checking for: 23666,23682,19131,19184,19253
[655] Checking for: 23666
[655] Checking for: 23682
[655] Checking for: 19131
[655] Checking for: 19184
[655] Checking for: 19253
Ok:  [ '23666', null, null, '19184', '19253' ]
Checking for: 19683,19743,19919,20027,20302
[660] Checking for: 19683
[660] Checking for: 19743
[660] Checking for: 19919
[660] Checking for: 20027
[660] Checking for: 20302
Ok:  [ '19683', null, null, '20027', '20302' ]
Checking for: 20560,20944,20996,21045,21110
[665] Checking for: 20560
[665] Checking for: 20944
[665] Checking for: 20996
[665] Checking for: 21045
[665] Checking for: 21110
Ok:  [ null, null, null, null, '21110' ]
Checking for: 21325,21439,21447,21482,21961
[670] Checking for: 21325
[670] Checking for: 21439
[670] Checking for: 21447
[670] Checking for: 21482
[670] Checking for: 21961
Ok:  [ null, '21439', null, '21482', '21961' ]
Checking for: 22053,22091,22104,22244,22397
[675] Checking for: 22053
[675] Checking for: 22091
[675] Checking for: 22104
[675] Checking for: 22244
[675] Checking for: 22397
Ok:  [ '22053', '22091', null, '22244', null ]
Checking for: 22402,10146,10319,10320,10359
[680] Checking for: 22402
[680] Checking for: 10146
[680] Checking for: 10319
[680] Checking for: 10320
[680] Checking for: 10359
Ok:  [ null, '10146', null, null, '10359' ]
Checking for: 10429,10448,10504,10565,10645
[685] Checking for: 10429
[685] Checking for: 10448
[685] Checking for: 10504
[685] Checking for: 10565
[685] Checking for: 10645
Ok:  [ '10429', null, '10504', null, '10645' ]
Checking for: 10652,10654,10663,10671,10672
[690] Checking for: 10652
[690] Checking for: 10654
[690] Checking for: 10663
[690] Checking for: 10671
[690] Checking for: 10672
Ok:  [ '10652', '10654', null, '10671', '10672' ]
Checking for: 10692,10702,10717,10741,10744
[695] Checking for: 10692
[695] Checking for: 10702
[695] Checking for: 10717
[695] Checking for: 10741
[695] Checking for: 10744
Ok:  [ '10692', '10702', '10717', '10741', '10744' ]
Checking for: 10759,10770,10773,10794,10832
[700] Checking for: 10759
[700] Checking for: 10770
[700] Checking for: 10773
[700] Checking for: 10794
[700] Checking for: 10832
Ok:  [ '10759', '10770', '10773', '10794', null ]
Checking for: 10841,10878,10906,10956,10989
[705] Checking for: 10841
[705] Checking for: 10878
[705] Checking for: 10906
[705] Checking for: 10956
[705] Checking for: 10989
Ok:  [ '10841', '10878', null, '10956', '10989' ]
Checking for: 11022,11041,11049,11055,11062
[710] Checking for: 11022
[710] Checking for: 11041
[710] Checking for: 11049
[710] Checking for: 11055
[710] Checking for: 11062
Ok:  [ '11022', null, null, '11055', null ]
Checking for: 11097,11152,11167,11236,11301
[715] Checking for: 11097
[715] Checking for: 11152
[715] Checking for: 11167
[715] Checking for: 11236
[715] Checking for: 11301
Ok:  [ null, null, null, null, '11301' ]
Checking for: 11312,11337,11380,11381,11402
[720] Checking for: 11312
[720] Checking for: 11337
[720] Checking for: 11380
[720] Checking for: 11381
[720] Checking for: 11402
Ok:  [ '11312', '11337', '11380', '11381', '11402' ]
Checking for: 11412,11426,11443,11444,11460
[725] Checking for: 11412
[725] Checking for: 11426
[725] Checking for: 11443
[725] Checking for: 11444
[725] Checking for: 11460
Ok:  [ null, '11426', null, null, '11460' ]
Checking for: 11472,11491,11549,11575,11586
[730] Checking for: 11472
[730] Checking for: 11491
[730] Checking for: 11549
[730] Checking for: 11575
[730] Checking for: 11586
Ok:  [ '11472', null, '11549', '11575', '11586' ]
Checking for: 11617,11664,11667,11670,11688
[735] Checking for: 11617
[735] Checking for: 11664
[735] Checking for: 11667
[735] Checking for: 11670
[735] Checking for: 11688
Ok:  [ '11617', null, null, null, null ]
Checking for: 11709,11730,11731,13437,13444
[740] Checking for: 11709
[740] Checking for: 11730
[740] Checking for: 11731
[740] Checking for: 13437
[740] Checking for: 13444
Ok:  [ '11709', null, '11731', null, null ]
Checking for: 13467,29104,29112,29130,29146
[745] Checking for: 13467
[745] Checking for: 29104
[745] Checking for: 29112
[745] Checking for: 29130
[745] Checking for: 29146
Ok:  [ null, '29104', null, null, null ]
Checking for: 29521,29731,29741,29912,29942
[750] Checking for: 29521
[750] Checking for: 29731
[750] Checking for: 29741
[750] Checking for: 29912
[750] Checking for: 29942
Ok:  [ null, '29731', null, '29912', null ]
Checking for: 30046,30472,30487,32103,32117
[755] Checking for: 30046
[755] Checking for: 30472
[755] Checking for: 30487
[755] Checking for: 32103
[755] Checking for: 32117
Ok:  [ null, '30472', '30487', null, null ]
Checking for: 32191,32258,32260,32295,32311
[760] Checking for: 32191
[760] Checking for: 32258
[760] Checking for: 32260
[760] Checking for: 32295
[760] Checking for: 32311
Ok:  [ null, null, null, null, '32311' ]
Checking for: 32362,32374,32414,32439,32448
[765] Checking for: 32362
[765] Checking for: 32374
[765] Checking for: 32414
[765] Checking for: 32439
[765] Checking for: 32448
Ok:  [ null, null, null, '32439', null ]
Checking for: 32463,32466,32481,32498,32504
[770] Checking for: 32463
[770] Checking for: 32466
[770] Checking for: 32481
[770] Checking for: 32498
[770] Checking for: 32504
Ok:  [ null, null, null, '32498', null ]
Checking for: 32506,32508,32541,32620,32664
[775] Checking for: 32506
[775] Checking for: 32508
[775] Checking for: 32541
[775] Checking for: 32620
[775] Checking for: 32664
Ok:  [ '32506', '32508', '32541', null, null ]
Checking for: 32692,32714,34641,34654,34674
[780] Checking for: 32692
[780] Checking for: 32714
[780] Checking for: 34641
[780] Checking for: 34654
[780] Checking for: 34674
Ok:  [ null, null, '34641', null, null ]
Checking for: 34686,34748,34749,34763,34782
[785] Checking for: 34686
[785] Checking for: 34748
[785] Checking for: 34749
[785] Checking for: 34763
[785] Checking for: 34782
Ok:  [ '34686', '34748', '34749', null, null ]
Checking for: 34824,34840,34846,34883,34894
[790] Checking for: 34824
[790] Checking for: 34840
[790] Checking for: 34846
[790] Checking for: 34883
[790] Checking for: 34894
Ok:  [ null, null, '34846', '34883', null ]
Checking for: 34903,34906,34909,34920,34984
[795] Checking for: 34903
[795] Checking for: 34906
[795] Checking for: 34909
[795] Checking for: 34920
[795] Checking for: 34984
Ok:  [ null, null, null, null, null ]
Checking for: 34992,35003,35009,35032,35039
[800] Checking for: 34992
[800] Checking for: 35003
[800] Checking for: 35009
[800] Checking for: 35032
[800] Checking for: 35039
Ok:  [ '34992', '35003', null, '35032', null ]
Checking for: 35041,35047,35055,35084,35092
[805] Checking for: 35041
[805] Checking for: 35047
[805] Checking for: 35055
[805] Checking for: 35084
[805] Checking for: 35092
Ok:  [ null, null, '35055', '35084', '35092' ]
Checking for: 35096,35101,35118,35127,35138
[810] Checking for: 35096
[810] Checking for: 35101
[810] Checking for: 35118
[810] Checking for: 35127
[810] Checking for: 35138
Ok:  [ '35096', null, '35118', '35127', '35138' ]
Checking for: 35150,35155,35165,35179,35183
[815] Checking for: 35150
[815] Checking for: 35155
[815] Checking for: 35165
[815] Checking for: 35179
[815] Checking for: 35183
Ok:  [ '35150', '35155', '35165', '35179', null ]
Checking for: 35236,32762,32768,32770,32773
[820] Checking for: 35236
[820] Checking for: 32762
[820] Checking for: 32768
[820] Checking for: 32770
[820] Checking for: 32773
Ok:  [ '35236', null, null, null, null ]
Checking for: 32791,32860,32910,32933,32974
[825] Checking for: 32791
[825] Checking for: 32860
[825] Checking for: 32910
[825] Checking for: 32933
[825] Checking for: 32974
Ok:  [ null, null, null, null, null ]
Checking for: 33037,33065,33069,33075,33107
[830] Checking for: 33037
[830] Checking for: 33065
[830] Checking for: 33069
[830] Checking for: 33075
[830] Checking for: 33107
Ok:  [ '33037', null, null, null, '33107' ]
Checking for: 33111,33133,33153,33193,33200
[835] Checking for: 33111
[835] Checking for: 33133
[835] Checking for: 33153
[835] Checking for: 33193
[835] Checking for: 33200
Ok:  [ null, null, null, null, null ]
Checking for: 33236,33249,33256,33280,33326
[840] Checking for: 33236
[840] Checking for: 33249
[840] Checking for: 33256
[840] Checking for: 33280
[840] Checking for: 33326
Ok:  [ '33236', null, null, null, '33326' ]
Checking for: 33351,33357,33362,33367,33397
[845] Checking for: 33351
[845] Checking for: 33357
[845] Checking for: 33362
[845] Checking for: 33367
[845] Checking for: 33397
Ok:  [ null, '33357', null, null, null ]
Checking for: 33426,33435,33438,33512,33514
[850] Checking for: 33426
[850] Checking for: 33435
[850] Checking for: 33438
[850] Checking for: 33512
[850] Checking for: 33514
Ok:  [ null, null, null, null, null ]
Checking for: 33537,33570,33680,33685,33718
[855] Checking for: 33537
[855] Checking for: 33570
[855] Checking for: 33680
[855] Checking for: 33685
[855] Checking for: 33718
Ok:  [ null, null, null, '33685', '33718' ]
Checking for: 33962,33973,33976,34008,34050
[860] Checking for: 33962
[860] Checking for: 33973
[860] Checking for: 33976
[860] Checking for: 34008
[860] Checking for: 34050
Ok:  [ null, null, null, null, null ]
Checking for: 34086,34136,34140,34145,34227
[865] Checking for: 34086
[865] Checking for: 34136
[865] Checking for: 34140
[865] Checking for: 34145
[865] Checking for: 34227
Ok:  [ null, null, '34140', '34145', null ]
Checking for: 34257,34269,34309,34315,34345
[870] Checking for: 34257
[870] Checking for: 34269
[870] Checking for: 34309
[870] Checking for: 34315
[870] Checking for: 34345
Ok:  [ null, '34269', '34309', '34315', '34345' ]
Checking for: 34369,34400,34407,34408,34450
[875] Checking for: 34369
[875] Checking for: 34400
[875] Checking for: 34407
[875] Checking for: 34408
[875] Checking for: 34450
Ok:  [ null, null, null, null, null ]
Checking for: 34499,34540,34545,34549,23699
[880] Checking for: 34499
[880] Checking for: 34540
[880] Checking for: 34545
[880] Checking for: 34549
[880] Checking for: 23699
Ok:  [ null, null, null, null, '23699' ]
Checking for: 23877,23880,23883,24061,24508
[885] Checking for: 23877
[885] Checking for: 23880
[885] Checking for: 23883
[885] Checking for: 24061
[885] Checking for: 24508
Ok:  [ null, null, null, null, null ]
Checking for: 24554,24645,25102,25143,25150
[890] Checking for: 24554
[890] Checking for: 24645
[890] Checking for: 25102
[890] Checking for: 25143
[890] Checking for: 25150
Ok:  [ null, '24645', null, '25143', null ]
Checking for: 25203,25267,25339,25520,25633
[895] Checking for: 25203
[895] Checking for: 25267
[895] Checking for: 25339
[895] Checking for: 25520
[895] Checking for: 25633
Ok:  [ null, null, null, null, '25633' ]
Checking for: 25690,25704,25736,25737,25828
[900] Checking for: 25690
[900] Checking for: 25704
[900] Checking for: 25736
[900] Checking for: 25737
[900] Checking for: 25828
Ok:  [ null, '25704', '25736', null, null ]
Checking for: 25856,25967,26058,26067,26074
[905] Checking for: 25856
[905] Checking for: 25967
[905] Checking for: 26058
[905] Checking for: 26067
[905] Checking for: 26074
Ok:  [ '25856', '25967', '26058', null, '26074' ]
Checking for: 26156,26245,26280,26334,26336
[910] Checking for: 26156
[910] Checking for: 26245
[910] Checking for: 26280
[910] Checking for: 26334
[910] Checking for: 26336
Ok:  [ null, null, null, '26334', '26336' ]
Checking for: 26396,26514,26588,26636,26717
[915] Checking for: 26396
[915] Checking for: 26514
[915] Checking for: 26588
[915] Checking for: 26636
[915] Checking for: 26717
Ok:  [ '26396', '26514', null, null, null ]
Checking for: 26784,26800,26870,27014,27054
[920] Checking for: 26784
[920] Checking for: 26800
[920] Checking for: 26870
[920] Checking for: 27014
[920] Checking for: 27054
Ok:  [ null, null, null, null, null ]
Checking for: 27338,27433,27499,27503,27547
[925] Checking for: 27338
[925] Checking for: 27433
[925] Checking for: 27499
[925] Checking for: 27503
[925] Checking for: 27547
Ok:  [ null, null, '27499', null, '27547' ]
Checking for: 27643,27670,27737,27769,27859
[930] Checking for: 27643
[930] Checking for: 27670
[930] Checking for: 27737
[930] Checking for: 27769
[930] Checking for: 27859
Ok:  [ null, null, null, null, null ]
Checking for: 27890,28310,28317,28320,28504
[935] Checking for: 27890
[935] Checking for: 28310
[935] Checking for: 28317
[935] Checking for: 28320
[935] Checking for: 28504
Ok:  [ '27890', null, null, null, null ]
Checking for: 28511,28515,28552,28561,28584
[940] Checking for: 28511
[940] Checking for: 28515
[940] Checking for: 28552
[940] Checking for: 28561
[940] Checking for: 28584
Ok:  [ '28511', '28515', null, null, null ]
Checking for: 28857,28862,36862,36867,36891
[945] Checking for: 28857
[945] Checking for: 28862
[945] Checking for: 36862
[945] Checking for: 36867
[945] Checking for: 36891
Ok:  [ null, '28862', '36862', '36867', null ]
Checking for: 36901,36927,36934,36937,36946
[950] Checking for: 36901
[950] Checking for: 36927
[950] Checking for: 36934
[950] Checking for: 36937
[950] Checking for: 36946
Ok:  [ null, null, null, null, null ]
Checking for: 36964,36989,37000,37033,37058
[955] Checking for: 36964
[955] Checking for: 36989
[955] Checking for: 37000
[955] Checking for: 37033
[955] Checking for: 37058
Ok:  [ '36964', '36989', null, null, null ]
Checking for: 37076,37077,37108,37116,37123
[960] Checking for: 37076
[960] Checking for: 37077
[960] Checking for: 37108
[960] Checking for: 37116
[960] Checking for: 37123
Ok:  [ null, '37077', '37108', null, '37123' ]
Checking for: 37124,37131,37144,37151,37163
[965] Checking for: 37124
[965] Checking for: 37131
[965] Checking for: 37144
[965] Checking for: 37151
[965] Checking for: 37163
Ok:  [ null, '37131', '37144', null, '37163' ]
Checking for: 37209,37228,37239,37323,37324
[970] Checking for: 37209
[970] Checking for: 37228
[970] Checking for: 37239
[970] Checking for: 37323
[970] Checking for: 37324
Ok:  [ null, null, null, '37323', '37324' ]
Checking for: 37345,37368,37376,37378,37387
[975] Checking for: 37345
[975] Checking for: 37368
[975] Checking for: 37376
[975] Checking for: 37378
[975] Checking for: 37387
Ok:  [ null, null, '37376', '37378', null ]
Checking for: 37391,37392,37426,37462,37470
[980] Checking for: 37391
[980] Checking for: 37392
[980] Checking for: 37426
[980] Checking for: 37462
[980] Checking for: 37470
Ok:  [ '37391', '37392', '37426', '37462', null ]
Checking for: 37481,37492,37552,37610,37629
[985] Checking for: 37481
[985] Checking for: 37492
[985] Checking for: 37552
[985] Checking for: 37610
[985] Checking for: 37629
Ok:  [ '37481', null, '37552', null, '37629' ]
Checking for: 37632,37633,37671,37675,37717
[990] Checking for: 37632
[990] Checking for: 37633
[990] Checking for: 37671
[990] Checking for: 37675
[990] Checking for: 37717
Ok:  [ '37632', '37633', null, null, null ]
Checking for: 37734,37747,39696,39718,39789
[995] Checking for: 37734
[995] Checking for: 37747
[995] Checking for: 39696
[995] Checking for: 39718
[995] Checking for: 39789
Ok:  [ null, '37747', null, '39718', '39789' ]
Checking for: 39796,39806,39811,39814,39846
[1000] Checking for: 39796
[1000] Checking for: 39806
[1000] Checking for: 39811
[1000] Checking for: 39814
[1000] Checking for: 39846
Ok:  [ '39796', null, null, null, null ]
Checking for: 39878,39912,39923,39929,39944
[1005] Checking for: 39878
[1005] Checking for: 39912
[1005] Checking for: 39923
[1005] Checking for: 39929
[1005] Checking for: 39944
Ok:  [ null, null, null, null, '39944' ]
Checking for: 39974,39980,39987,39994,40005
[1010] Checking for: 39974
[1010] Checking for: 39980
[1010] Checking for: 39987
[1010] Checking for: 39994
[1010] Checking for: 40005
Ok:  [ '39974', null, null, null, null ]
Checking for: 40016,40019,40035,40047,40058
[1015] Checking for: 40016
[1015] Checking for: 40019
[1015] Checking for: 40035
[1015] Checking for: 40047
[1015] Checking for: 40058
Ok:  [ null, null, null, null, null ]
Checking for: 40075,40079,40081,40099,40100
[1020] Checking for: 40075
[1020] Checking for: 40079
[1020] Checking for: 40081
[1020] Checking for: 40099
[1020] Checking for: 40100
Ok:  [ null, null, null, null, null ]
Checking for: 40106,40112,40120,40121,40131
[1025] Checking for: 40106
[1025] Checking for: 40112
[1025] Checking for: 40120
[1025] Checking for: 40121
[1025] Checking for: 40131
Ok:  [ null, null, '40120', null, null ]
Checking for: 40135,40136,40141,40144,40149
[1030] Checking for: 40135
[1030] Checking for: 40136
[1030] Checking for: 40141
[1030] Checking for: 40144
[1030] Checking for: 40149
Ok:  [ null, '40136', null, null, null ]
Checking for: 40153,40158,40162,40171,40180
[1035] Checking for: 40153
[1035] Checking for: 40158
[1035] Checking for: 40162
[1035] Checking for: 40171
[1035] Checking for: 40180
Ok:  [ null, null, null, null, null ]
Checking for: 40183,40192,38066,38082,38105
[1040] Checking for: 40183
[1040] Checking for: 40192
[1040] Checking for: 38066
[1040] Checking for: 38082
[1040] Checking for: 38105
Ok:  [ null, null, null, '38082', null ]
Checking for: 38118,38144,38154,38212,38236
[1045] Checking for: 38118
[1045] Checking for: 38144
[1045] Checking for: 38154
[1045] Checking for: 38212
[1045] Checking for: 38236
Ok:  [ null, '38144', null, '38212', null ]
Checking for: 38250,38285,38298,38313,38321
[1050] Checking for: 38250
[1050] Checking for: 38285
[1050] Checking for: 38298
[1050] Checking for: 38313
[1050] Checking for: 38321
Ok:  [ null, null, null, null, '38321' ]
Checking for: 38327,38335,38336,38341,38350
[1055] Checking for: 38327
[1055] Checking for: 38335
[1055] Checking for: 38336
[1055] Checking for: 38341
[1055] Checking for: 38350
Ok:  [ '38327', null, null, '38341', '38350' ]
Checking for: 38358,38367,38405,38435,38448
[1060] Checking for: 38358
[1060] Checking for: 38367
[1060] Checking for: 38405
[1060] Checking for: 38435
[1060] Checking for: 38448
Ok:  [ null, null, null, null, null ]
Checking for: 38477,38561,38599,38658,38660
[1065] Checking for: 38477
[1065] Checking for: 38561
[1065] Checking for: 38599
[1065] Checking for: 38658
[1065] Checking for: 38660
Ok:  [ null, null, '38599', null, '38660' ]
Checking for: 38676,38738,38748,38783,38833
[1070] Checking for: 38676
[1070] Checking for: 38738
[1070] Checking for: 38748
[1070] Checking for: 38783
[1070] Checking for: 38833
Ok:  [ '38676', null, null, null, null ]
Checking for: 38845,38863,38869,38888,38931
[1075] Checking for: 38845
[1075] Checking for: 38863
[1075] Checking for: 38869
[1075] Checking for: 38888
[1075] Checking for: 38931
Ok:  [ '38845', null, null, null, null ]
Checking for: 38987,38991,39161,39193,39197
[1080] Checking for: 38987
[1080] Checking for: 38991
[1080] Checking for: 39161
[1080] Checking for: 39193
[1080] Checking for: 39197
Ok:  [ '38987', null, '39161', '39193', '39197' ]
Checking for: 39220,39271,39279,39288,39313
[1085] Checking for: 39220
[1085] Checking for: 39271
[1085] Checking for: 39279
[1085] Checking for: 39288
[1085] Checking for: 39313
Ok:  [ '39220', null, null, null, null ]
Checking for: 39325,39327,39359,39371,39372
[1090] Checking for: 39325
[1090] Checking for: 39327
[1090] Checking for: 39359
[1090] Checking for: 39371
[1090] Checking for: 39372
Ok:  [ '39325', null, null, '39371', null ]
Checking for: 39455,39499,39520,39565,39566
[1095] Checking for: 39455
[1095] Checking for: 39499
[1095] Checking for: 39520
[1095] Checking for: 39565
[1095] Checking for: 39566
Ok:  [ null, null, '39520', '39565', null ]
Checking for: 39586,39589,35251,35256,35261
[1100] Checking for: 39586
[1100] Checking for: 39589
[1100] Checking for: 35251
[1100] Checking for: 35256
[1100] Checking for: 35261
Ok:  [ '39586', '39589', '35251', '35256', '35261' ]
Checking for: 35271,35282,35433,35436,35472
[1105] Checking for: 35271
[1105] Checking for: 35282
[1105] Checking for: 35433
[1105] Checking for: 35436
[1105] Checking for: 35472
Ok:  [ null, null, '35433', null, null ]
Checking for: 35479,35543,35544,35554,35556
[1110] Checking for: 35479
[1110] Checking for: 35543
[1110] Checking for: 35544
[1110] Checking for: 35554
[1110] Checking for: 35556
Ok:  [ null, null, '35544', '35554', null ]
Checking for: 35564,35580,35587,35592,35631
[1115] Checking for: 35564
[1115] Checking for: 35580
[1115] Checking for: 35587
[1115] Checking for: 35592
[1115] Checking for: 35631
Ok:  [ '35564', '35580', null, '35592', null ]
Checking for: 35661,35702,35771,35777,35857
[1120] Checking for: 35661
[1120] Checking for: 35702
[1120] Checking for: 35771
[1120] Checking for: 35777
[1120] Checking for: 35857
Ok:  [ '35661', null, null, '35777', null ]
Checking for: 35871,35910,35984,36051,36093
[1125] Checking for: 35871
[1125] Checking for: 35910
[1125] Checking for: 35984
[1125] Checking for: 36051
[1125] Checking for: 36093
Ok:  [ '35871', '35910', '35984', '36051', null ]
Checking for: 36128,36136,36148,36154,36178
[1130] Checking for: 36128
[1130] Checking for: 36136
[1130] Checking for: 36148
[1130] Checking for: 36154
[1130] Checking for: 36178
Ok:  [ null, null, null, null, null ]
Checking for: 36183,36184,36192,36194,36238
[1135] Checking for: 36183
[1135] Checking for: 36184
[1135] Checking for: 36192
[1135] Checking for: 36194
[1135] Checking for: 36238
Ok:  [ null, null, null, '36194', null ]
Checking for: 36438,36441,36470,36472,36480
[1140] Checking for: 36438
[1140] Checking for: 36441
[1140] Checking for: 36470
[1140] Checking for: 36472
[1140] Checking for: 36480
Ok:  [ '36438', '36441', '36470', null, null ]
Checking for: 36481,36494,36660,36678,36701
[1145] Checking for: 36481
[1145] Checking for: 36494
[1145] Checking for: 36660
[1145] Checking for: 36678
[1145] Checking for: 36701
Ok:  [ null, '36494', '36660', null, null ]
Checking for: 36706,36715,36785,36800,36809
[1150] Checking for: 36706
[1150] Checking for: 36715
[1150] Checking for: 36785
[1150] Checking for: 36800
[1150] Checking for: 36809
Ok:  [ null, null, null, '36800', null ]
Checking for: 36821,36832,36842,36844,36860
[1155] Checking for: 36821
[1155] Checking for: 36832
[1155] Checking for: 36842
[1155] Checking for: 36844
[1155] Checking for: 36860
Ok:  [ '36821', null, null, '36844', '36860' ]
Checking for: 41917,41918,41949,41952,41955
[1160] Checking for: 41917
[1160] Checking for: 41918
[1160] Checking for: 41949
[1160] Checking for: 41952
[1160] Checking for: 41955
Ok:  [ null, null, '41949', '41952', '41955' ]
Checking for: 41972,41988,42004,42041,40234
[1165] Checking for: 41972
[1165] Checking for: 41988
[1165] Checking for: 42004
[1165] Checking for: 42041
[1165] Checking for: 40234
Ok:  [ null, null, null, null, '40234' ]
Checking for: 40236,40287,40289,40304,40317
[1170] Checking for: 40236
[1170] Checking for: 40287
[1170] Checking for: 40289
[1170] Checking for: 40304
[1170] Checking for: 40317
Ok:  [ null, null, null, null, null ]
Checking for: 40324,40335,40336,40339,40343
[1175] Checking for: 40324
[1175] Checking for: 40335
[1175] Checking for: 40336
[1175] Checking for: 40339
[1175] Checking for: 40343
Ok:  [ null, null, null, '40339', null ]
Checking for: 40350,40361,40367,40378,40393
[1180] Checking for: 40350
[1180] Checking for: 40361
[1180] Checking for: 40367
[1180] Checking for: 40378
[1180] Checking for: 40393
Ok:  [ '40350', '40361', null, null, null ]
Checking for: 40395,40412,40420,40448,40454
[1185] Checking for: 40395
[1185] Checking for: 40412
[1185] Checking for: 40420
[1185] Checking for: 40448
[1185] Checking for: 40454
Ok:  [ null, null, null, null, null ]
Checking for: 40469,40479,40485,40510,41109
[1190] Checking for: 40469
[1190] Checking for: 40479
[1190] Checking for: 40485
[1190] Checking for: 40510
[1190] Checking for: 41109
Ok:  [ '40469', null, null, null, '41109' ]
Checking for: 41146,41157,41178,41253,41266
[1195] Checking for: 41146
[1195] Checking for: 41157
[1195] Checking for: 41178
[1195] Checking for: 41253
[1195] Checking for: 41266
Ok:  [ null, null, null, null, null ]
Checking for: 41278,41324,41326,41333,41338
[1200] Checking for: 41278
[1200] Checking for: 41324
[1200] Checking for: 41326
[1200] Checking for: 41333
[1200] Checking for: 41338
Ok:  [ null, null, null, null, null ]
Checking for: 41515,41521,41538,41540,41557
[1205] Checking for: 41515
[1205] Checking for: 41521
[1205] Checking for: 41538
[1205] Checking for: 41540
[1205] Checking for: 41557
Ok:  [ null, null, null, null, null ]
Checking for: 41617,41700,41781,41792,41793
[1210] Checking for: 41617
[1210] Checking for: 41700
[1210] Checking for: 41781
[1210] Checking for: 41792
[1210] Checking for: 41793
Ok:  [ null, null, null, null, null ]
Checking for: 41814,41821,15406,16120,16126
[1215] Checking for: 41814
[1215] Checking for: 41821
[1215] Checking for: 15406
[1215] Checking for: 16120
[1215] Checking for: 16126
Ok:  [ null, null, null, '16120', null ]
Checking for: 16202,16369,16638,16656,16665
[1220] Checking for: 16202
[1220] Checking for: 16369
[1220] Checking for: 16638
[1220] Checking for: 16656
[1220] Checking for: 16665
Ok:  [ null, null, null, '16656', '16665' ]
Checking for: 16728,16753,17163,17214,17305
[1225] Checking for: 16728
[1225] Checking for: 16753
[1225] Checking for: 17163
[1225] Checking for: 17214
[1225] Checking for: 17305
Ok:  [ null, null, null, '17214', null ]
Checking for: 17451,17460,17546,17559,17629
[1230] Checking for: 17451
[1230] Checking for: 17460
[1230] Checking for: 17546
[1230] Checking for: 17559
[1230] Checking for: 17629
Ok:  [ null, null, '17546', '17559', null ]
Checking for: 17636,17826,17871,18233,18325
[1235] Checking for: 17636
[1235] Checking for: 17826
[1235] Checking for: 17871
[1235] Checking for: 18233
[1235] Checking for: 18325
Ok:  [ null, '17826', null, null, null ]
Checking for: 18360,18390,18424,18700
[1240] Checking for: 18360
[1240] Checking for: 18390
[1240] Checking for: 18424
[1240] Checking for: 18700
Ok:  [ null, '18390', '18424', null ]
22657,23030,23081,23156,23242,23276,23337,23428,23676,19870,19925,20294,20435,20517,20700,20717,21139,21980,22273,22299,10056,10117,10147,10202,10491,10677,10709,10761,10769,10775,10787,10882,10923,10954,10982,11002,11024,11028,11080,11270,11274,11282,11309,11328,11372,11393,11431,11590,11595,11727,11732,29216,29775,29776,30032,30059,30479,32135,32176,32198,32220,32223,32287,32394,32581,32660,32685,34821,34845,34855,34871,34877,34905,35005,35080,35090,35111,35123,35130,35132,35148,35166,35175,35205,35232,35237,35238,35239,32868,32899,32961,32965,32966,32976,32983,32995,33192,33305,33388,33974,34082,34279,34366,34523,34558,34559,23700,23854,24093,24162,24164,24232,24552,24624,24724,25414,25450,25495,26152,26199,26347,26375,26801,26830,27080,27391,27735,28565,36873,36966,36976,36998,37011,37043,37235,37242,37251,37294,37298,37325,37389,37405,37424,37439,37612,37765,39710,39765,39900,39901,39911,39952,40069,40173,37925,38077,38163,38176,38192,38196,38377,38879,39018,39088,39368,39511,35278,35279,35429,35510,35539,35552,35560,35563,35579,35584,35602,35929,35938,35955,35965,35966,36064,36071,36493,36771,36779,36843,36852,36854,40221,40319,40352,40353,15560,15801,15948,16158,16170,16335,18667,22841,23035,23097,23335,23345,23436,23666,19184,19253,19683,20027,20302,21110,21439,21482,21961,22053,22091,22244,10146,10359,10429,10504,10645,10652,10654,10671,10672,10692,10702,10717,10741,10744,10759,10770,10773,10794,10841,10878,10956,10989,11022,11055,11301,11312,11337,11380,11381,11402,11426,11460,11472,11549,11575,11586,11617,11709,11731,29104,29731,29912,30472,30487,32311,32439,32498,32506,32508,32541,34641,34686,34748,34749,34846,34883,34992,35003,35032,35055,35084,35092,35096,35118,35127,35138,35150,35155,35165,35179,35236,33037,33107,33236,33326,33357,33685,33718,34140,34145,34269,34309,34315,34345,23699,24645,25143,25633,25704,25736,25856,25967,26058,26074,26334,26336,26396,26514,27499,27547,27890,28511,28515,28862,36862,36867,36964,36989,37077,37108,37123,37131,37144,37163,37323,37324,37376,37378,37391,37392,37426,37462,37481,37552,37629,37632,37633,37747,39718,39789,39796,39944,39974,40120,40136,38082,38144,38212,38321,38327,38341,38350,38599,38660,38676,38845,38987,39161,39193,39197,39220,39325,39371,39520,39565,39586,39589,35251,35256,35261,35433,35544,35554,35564,35580,35592,35661,35777,35871,35910,35984,36051,36194,36438,36441,36470,36494,36660,36800,36821,36844,36860,41949,41952,41955,40234,40339,40350,40361,40469,41109,16120,16656,16665,17214,17546,17559,17826,18390,18424
]]zzzzzzzzzzzzzzzzzz E (420)zzzzzzzz zzzz zzzzzz
StoreMap >  [{"zone":"E","storeIds":["22657","23030","23081","23156","23242","23276","23337","23428","23676","19870","19925","20294","20435","20517","20700","20717","21139","21980","22273","22299","10056","10117","10147","10202","10491","10677","10709","10761","10769","10775","10787","10882","10923","10954","10982","11002","11024","11028","11080","11270","11274","11282","11309","11328","11372","11393","11431","11590","11595","11727","11732","29216","29775","29776","30032","30059","30479","32135","32176","32198","32220","32223","32287","32394","32581","32660","32685","34821","34845","34855","34871","34877","34905","35005","35080","35090","35111","35123","35130","35132","35148","35166","35175","35205","35232","35237","35238","35239","32868","32899","32961","32965","32966","32976","32983","32995","33192","33305","33388","33974","34082","34279","34366","34523","34558","34559","23700","23854","24093","24162","24164","24232","24552","24624","24724","25414","25450","25495","26152","26199","26347","26375","26801","26830","27080","27391","27735","28565","36873","36966","36976","36998","37011","37043","37235","37242","37251","37294","37298","37325","37389","37405","37424","37439","37612","37765","39710","39765","39900","39901","39911","39952","40069","40173","37925","38077","38163","38176","38192","38196","38377","38879","39018","39088","39368","39511","35278","35279","35429","35510","35539","35552","35560","35563","35579","35584","35602","35929","35938","35955","35965","35966","36064","36071","36493","36771","36779","36843","36852","36854","40221","40319","40352","40353","15560","15801","15948","16158","16170","16335","18667","22841","23035","23097","23335","23345","23436","23666","19184","19253","19683","20027","20302","21110","21439","21482","21961","22053","22091","22244","10146","10359","10429","10504","10645","10652","10654","10671","10672","10692","10702","10717","10741","10744","10759","10770","10773","10794","10841","10878","10956","10989","11022","11055","11301","11312","11337","11380","11381","11402","11426","11460","11472","11549","11575","11586","11617","11709","11731","29104","29731","29912","30472","30487","32311","32439","32498","32506","32508","32541","34641","34686","34748","34749","34846","34883","34992","35003","35032","35055","35084","35092","35096","35118","35127","35138","35150","35155","35165","35179","35236","33037","33107","33236","33326","33357","33685","33718","34140","34145","34269","34309","34315","34345","23699","24645","25143","25633","25704","25736","25856","25967","26058","26074","26334","26336","26396","26514","27499","27547","27890","28511","28515","28862","36862","36867","36964","36989","37077","37108","37123","37131","37144","37163","37323","37324","37376","37378","37391","37392","37426","37462","37481","37552","37629","37632","37633","37747","39718","39789","39796","39944","39974","40120","40136","38082","38144","38212","38321","38327","38341","38350","38599","38660","38676","38845","38987","39161","39193","39197","39220","39325","39371","39520","39565","39586","39589","35251","35256","35261","35433","35544","35554","35564","35580","35592","35661","35777","35871","35910","35984","36051","36194","36438","36441","36470","36494","36660","36800","36821","36844","36860","41949","41952","41955","40234","40339","40350","40361","40469","41109","16120","16656","16665","17214","17546","17559","17826","18390","18424"]}]
[connection.provider] Connection DISCONNECTED
[connection.provider] Connection CLOSE
Closed db connections: ordering
[connection.provider] Connection DISCONNECTED
[connection.provider] Connection CLOSE
Closed db connections: risprod
Done.
